<?xml version="1.0" encoding="utf-8" standalone="no"?>
<!DOCTYPE svg PUBLIC "-//W3C//DTD SVG 1.1//EN"
  "http://www.w3.org/Graphics/SVG/1.1/DTD/svg11.dtd">
<!-- Created with matplotlib (http://matplotlib.org/) -->
<svg height="479pt" version="1.1" viewBox="0 0 1276 479" width="1276pt" xmlns="http://www.w3.org/2000/svg" xmlns:xlink="http://www.w3.org/1999/xlink">
 <defs>
  <style type="text/css">
*{stroke-linecap:butt;stroke-linejoin:round;stroke-miterlimit:100000;}
  </style>
 </defs>
 <g id="figure_1">
  <g id="patch_1">
   <path d="M 0 479.199915 
L 1276.354094 479.199915 
L 1276.354094 0 
L 0 0 
z
" style="fill:#ffffff;"/>
  </g>
  <g id="axes_1">
   <g id="patch_2">
    <path d="M 74.930594 343.962406 
L 1269.154094 343.962406 
L 1269.154094 15.426406 
L 74.930594 15.426406 
z
" style="fill:#ffffff;"/>
   </g>
   <g id="matplotlib.axis_1">
    <g id="xtick_1">
     <g id="line2d_1">
      <defs>
       <path d="M 0 0 
L 0 6 
" id="m313b19d892" style="stroke:#262626;"/>
      </defs>
      <g>
       <use style="fill:#262626;stroke:#262626;" x="160.232272321" xlink:href="#m313b19d892" y="353.96240625"/>
      </g>
     </g>
     <g id="text_1">
      <!-- Request Policy -->
      <defs>
       <path d="M 21.578125 -9.515625 
L 25 -0.875 
L 5.609375 46.6875 
L -0.296875 46.6875 
L -0.296875 51.90625 
L 23.578125 51.90625 
L 23.578125 46.6875 
L 15.28125 46.6875 
L 29.890625 10.984375 
L 44.484375 46.6875 
L 36.71875 46.6875 
L 36.71875 51.90625 
L 56.203125 51.90625 
L 56.203125 46.6875 
L 50.390625 46.6875 
L 26.609375 -11.71875 
Q 24.171875 -17.78125 21.1875 -20 
Q 18.21875 -22.21875 12.796875 -22.21875 
Q 10.5 -22.21875 8.078125 -21.828125 
Q 5.671875 -21.4375 3.21875 -20.703125 
L 3.21875 -10.796875 
L 7.8125 -10.796875 
Q 8.109375 -14.109375 9.5 -15.546875 
Q 10.890625 -17 13.8125 -17 
Q 16.5 -17 18.140625 -15.5 
Q 19.78125 -14.015625 21.578125 -9.515625 
" id="BitstreamVeraSerif-Roman-79"/>
       <path d="M 52.484375 46.6875 
L 52.484375 -15.578125 
L 61.078125 -15.578125 
L 61.078125 -20.796875 
L 35.015625 -20.796875 
L 35.015625 -15.578125 
L 43.5 -15.578125 
L 43.5 8.109375 
Q 40.875 3.21875 36.796875 0.890625 
Q 32.71875 -1.421875 26.703125 -1.421875 
Q 17.140625 -1.421875 11.0625 6.171875 
Q 4.984375 13.765625 4.984375 25.984375 
Q 4.984375 38.1875 11.03125 45.75 
Q 17.09375 53.328125 26.703125 53.328125 
Q 32.71875 53.328125 36.796875 51 
Q 40.875 48.6875 43.5 43.796875 
L 43.5 51.90625 
L 61.078125 51.90625 
L 61.078125 46.6875 
z
M 43.5 28.515625 
Q 43.5 37.84375 39.90625 42.765625 
Q 36.328125 47.703125 29.5 47.703125 
Q 22.5625 47.703125 19.015625 42.234375 
Q 15.484375 36.765625 15.484375 25.984375 
Q 15.484375 15.234375 19.015625 9.71875 
Q 22.5625 4.203125 29.5 4.203125 
Q 36.328125 4.203125 39.90625 9.109375 
Q 43.5 14.015625 43.5 23.390625 
z
" id="BitstreamVeraSerif-Roman-71"/>
       <path d="M 30.078125 3.421875 
Q 37.3125 3.421875 40.984375 9.125 
Q 44.671875 14.84375 44.671875 25.984375 
Q 44.671875 37.109375 40.984375 42.796875 
Q 37.3125 48.484375 30.078125 48.484375 
Q 22.859375 48.484375 19.171875 42.796875 
Q 15.484375 37.109375 15.484375 25.984375 
Q 15.484375 14.84375 19.1875 9.125 
Q 22.90625 3.421875 30.078125 3.421875 
M 30.078125 -1.421875 
Q 18.75 -1.421875 11.859375 6.078125 
Q 4.984375 13.578125 4.984375 25.984375 
Q 4.984375 38.375 11.84375 45.84375 
Q 18.703125 53.328125 30.078125 53.328125 
Q 41.453125 53.328125 48.3125 45.84375 
Q 55.171875 38.375 55.171875 25.984375 
Q 55.171875 13.578125 48.3125 6.078125 
Q 41.453125 -1.421875 30.078125 -1.421875 
" id="BitstreamVeraSerif-Roman-6f"/>
       <path d="M 51.421875 15.578125 
Q 49.515625 7.28125 44.09375 2.921875 
Q 38.671875 -1.421875 30.078125 -1.421875 
Q 18.75 -1.421875 11.859375 6.078125 
Q 4.984375 13.578125 4.984375 25.984375 
Q 4.984375 38.421875 11.859375 45.875 
Q 18.75 53.328125 30.078125 53.328125 
Q 35.015625 53.328125 39.890625 52.171875 
Q 44.78125 51.03125 49.703125 48.6875 
L 49.703125 35.40625 
L 44.484375 35.40625 
Q 43.453125 42.234375 40.015625 45.359375 
Q 36.578125 48.484375 30.171875 48.484375 
Q 22.90625 48.484375 19.1875 42.84375 
Q 15.484375 37.203125 15.484375 25.984375 
Q 15.484375 14.75 19.171875 9.078125 
Q 22.859375 3.421875 30.171875 3.421875 
Q 35.984375 3.421875 39.453125 6.4375 
Q 42.921875 9.46875 44.1875 15.578125 
z
" id="BitstreamVeraSerif-Roman-63"/>
       <path d="M 54.203125 25 
L 15.484375 25 
L 15.484375 24.609375 
Q 15.484375 14.109375 19.4375 8.765625 
Q 23.390625 3.421875 31.109375 3.421875 
Q 37.015625 3.421875 40.796875 6.515625 
Q 44.578125 9.625 46.09375 15.71875 
L 53.328125 15.71875 
Q 51.171875 7.171875 45.375 2.875 
Q 39.59375 -1.421875 30.171875 -1.421875 
Q 18.796875 -1.421875 11.890625 6.078125 
Q 4.984375 13.578125 4.984375 25.984375 
Q 4.984375 38.28125 11.765625 45.796875 
Q 18.5625 53.328125 29.59375 53.328125 
Q 41.359375 53.328125 47.65625 46.0625 
Q 53.953125 38.8125 54.203125 25 
M 43.609375 30.171875 
Q 43.3125 39.265625 39.765625 43.875 
Q 36.234375 48.484375 29.59375 48.484375 
Q 23.390625 48.484375 19.828125 43.84375 
Q 16.265625 39.203125 15.484375 30.171875 
z
" id="BitstreamVeraSerif-Roman-65"/>
       <path d="M 24.703125 37.109375 
L 37.59375 37.109375 
Q 44.875 37.109375 48.671875 41.03125 
Q 52.484375 44.96875 52.484375 52.390625 
Q 52.484375 59.859375 48.671875 63.765625 
Q 44.875 67.671875 37.59375 67.671875 
L 24.703125 67.671875 
z
M 5.515625 0 
L 5.515625 5.171875 
L 14.796875 5.171875 
L 14.796875 67.671875 
L 5.515625 67.671875 
L 5.515625 72.90625 
L 39.984375 72.90625 
Q 50.921875 72.90625 57.3125 67.359375 
Q 63.71875 61.8125 63.71875 52.390625 
Q 63.71875 43.015625 57.3125 37.453125 
Q 50.921875 31.890625 39.984375 31.890625 
L 24.703125 31.890625 
L 24.703125 5.171875 
L 35.984375 5.171875 
L 35.984375 0 
z
" id="BitstreamVeraSerif-Roman-50"/>
       <path id="BitstreamVeraSerif-Roman-20"/>
       <path d="M 9.71875 68.015625 
Q 9.71875 70.265625 11.34375 71.921875 
Q 12.984375 73.578125 15.28125 73.578125 
Q 17.53125 73.578125 19.15625 71.921875 
Q 20.796875 70.265625 20.796875 68.015625 
Q 20.796875 65.71875 19.1875 64.109375 
Q 17.578125 62.5 15.28125 62.5 
Q 12.984375 62.5 11.34375 64.109375 
Q 9.71875 65.71875 9.71875 68.015625 
M 21.1875 5.171875 
L 29.6875 5.171875 
L 29.6875 0 
L 3.609375 0 
L 3.609375 5.171875 
L 12.203125 5.171875 
L 12.203125 46.6875 
L 3.609375 46.6875 
L 3.609375 51.90625 
L 21.1875 51.90625 
z
" id="BitstreamVeraSerif-Roman-69"/>
       <path d="M 35.40625 51.90625 
L 52.203125 51.90625 
L 52.203125 5.171875 
L 60.6875 5.171875 
L 60.6875 0 
L 43.21875 0 
L 43.21875 9.1875 
Q 40.71875 4 36.765625 1.28125 
Q 32.8125 -1.421875 27.59375 -1.421875 
Q 18.953125 -1.421875 14.875 3.484375 
Q 10.796875 8.40625 10.796875 18.890625 
L 10.796875 46.6875 
L 2.6875 46.6875 
L 2.6875 51.90625 
L 19.828125 51.90625 
L 19.828125 21.6875 
Q 19.828125 12.203125 22.140625 8.6875 
Q 24.46875 5.171875 30.421875 5.171875 
Q 36.671875 5.171875 39.9375 9.765625 
Q 43.21875 14.359375 43.21875 23.09375 
L 43.21875 46.6875 
L 35.40625 46.6875 
z
" id="BitstreamVeraSerif-Roman-75"/>
       <path d="M 10.796875 46.6875 
L 2.875 46.6875 
L 2.875 51.90625 
L 10.796875 51.90625 
L 10.796875 68.015625 
L 19.828125 68.015625 
L 19.828125 51.90625 
L 36.71875 51.90625 
L 36.71875 46.6875 
L 19.828125 46.6875 
L 19.828125 13.71875 
Q 19.828125 7.125 21.09375 5.265625 
Q 22.359375 3.421875 25.78125 3.421875 
Q 29.296875 3.421875 30.90625 5.484375 
Q 32.515625 7.5625 32.625 12.203125 
L 39.40625 12.203125 
Q 39.015625 5.125 35.546875 1.84375 
Q 32.078125 -1.421875 25 -1.421875 
Q 17.234375 -1.421875 14.015625 2.015625 
Q 10.796875 5.46875 10.796875 13.71875 
z
" id="BitstreamVeraSerif-Roman-74"/>
       <path d="M 47.90625 36.1875 
Q 51.3125 35.25 53.78125 33.03125 
Q 56.25 30.8125 58.203125 26.8125 
L 68.796875 5.171875 
L 77.6875 5.171875 
L 77.6875 0 
L 60.5 0 
L 49.125 23.1875 
Q 45.84375 29.9375 43.109375 31.90625 
Q 40.375 33.890625 35.59375 33.890625 
L 24.703125 33.890625 
L 24.703125 5.171875 
L 35.015625 5.171875 
L 35.015625 0 
L 5.515625 0 
L 5.515625 5.171875 
L 14.796875 5.171875 
L 14.796875 67.671875 
L 5.515625 67.671875 
L 5.515625 72.90625 
L 42.484375 72.90625 
Q 53.125 72.90625 58.90625 67.828125 
Q 64.703125 62.75 64.703125 53.421875 
Q 64.703125 45.90625 60.46875 41.578125 
Q 56.25 37.25 47.90625 36.1875 
M 24.703125 39.109375 
L 39.109375 39.109375 
Q 46.484375 39.109375 50 42.59375 
Q 53.515625 46.09375 53.515625 53.421875 
Q 53.515625 60.75 50 64.203125 
Q 46.484375 67.671875 39.109375 67.671875 
L 24.703125 67.671875 
z
" id="BitstreamVeraSerif-Roman-52"/>
       <path d="M 5.609375 2.875 
L 5.609375 14.984375 
L 10.796875 14.984375 
Q 10.984375 9.1875 14.421875 6.296875 
Q 17.875 3.421875 24.609375 3.421875 
Q 30.671875 3.421875 33.84375 5.6875 
Q 37.015625 7.953125 37.015625 12.3125 
Q 37.015625 15.71875 34.6875 17.8125 
Q 32.375 19.921875 24.90625 22.3125 
L 18.40625 24.515625 
Q 11.71875 26.65625 8.71875 29.875 
Q 5.71875 33.109375 5.71875 38.09375 
Q 5.71875 45.21875 10.9375 49.265625 
Q 16.15625 53.328125 25.390625 53.328125 
Q 29.5 53.328125 34.03125 52.25 
Q 38.578125 51.171875 43.40625 49.125 
L 43.40625 37.796875 
L 38.234375 37.796875 
Q 38.03125 42.828125 34.703125 45.65625 
Q 31.390625 48.484375 25.6875 48.484375 
Q 20.015625 48.484375 17.109375 46.484375 
Q 14.203125 44.484375 14.203125 40.484375 
Q 14.203125 37.203125 16.40625 35.21875 
Q 18.609375 33.25 25.203125 31.203125 
L 32.328125 29 
Q 39.703125 26.703125 42.9375 23.265625 
Q 46.1875 19.828125 46.1875 14.40625 
Q 46.1875 7.03125 40.546875 2.796875 
Q 34.90625 -1.421875 25 -1.421875 
Q 19.96875 -1.421875 15.1875 -0.34375 
Q 10.40625 0.734375 5.609375 2.875 
" id="BitstreamVeraSerif-Roman-73"/>
       <path d="M 20.515625 5.171875 
L 29 5.171875 
L 29 0 
L 2.875 0 
L 2.875 5.171875 
L 11.53125 5.171875 
L 11.53125 70.796875 
L 2.875 70.796875 
L 2.875 75.984375 
L 20.515625 75.984375 
z
" id="BitstreamVeraSerif-Roman-6c"/>
      </defs>
      <g style="fill:#262626;" transform="translate(67.4935606873 466.16418435)rotate(-45.0)scale(0.17 -0.17)">
       <use xlink:href="#BitstreamVeraSerif-Roman-52"/>
       <use x="75.29296875" xlink:href="#BitstreamVeraSerif-Roman-65"/>
       <use x="134.47265625" xlink:href="#BitstreamVeraSerif-Roman-71"/>
       <use x="198.486328125" xlink:href="#BitstreamVeraSerif-Roman-75"/>
       <use x="262.890625" xlink:href="#BitstreamVeraSerif-Roman-65"/>
       <use x="322.0703125" xlink:href="#BitstreamVeraSerif-Roman-73"/>
       <use x="373.388671875" xlink:href="#BitstreamVeraSerif-Roman-74"/>
       <use x="413.57421875" xlink:href="#BitstreamVeraSerif-Roman-20"/>
       <use x="445.361328125" xlink:href="#BitstreamVeraSerif-Roman-50"/>
       <use x="512.583984375" xlink:href="#BitstreamVeraSerif-Roman-6f"/>
       <use x="572.7890625" xlink:href="#BitstreamVeraSerif-Roman-6c"/>
       <use x="604.771484375" xlink:href="#BitstreamVeraSerif-Roman-69"/>
       <use x="636.75390625" xlink:href="#BitstreamVeraSerif-Roman-63"/>
       <use x="692.759765625" xlink:href="#BitstreamVeraSerif-Roman-79"/>
      </g>
     </g>
    </g>
    <g id="xtick_2">
     <g id="line2d_2">
      <g>
       <use style="fill:#262626;stroke:#262626;" x="330.835629464" xlink:href="#m313b19d892" y="353.96240625"/>
      </g>
     </g>
     <g id="text_2">
      <!-- Ghostery -->
      <defs>
       <path d="M 47.796875 52 
L 47.796875 39.015625 
L 42.625 39.015625 
Q 42.390625 42.875 40.484375 44.78125 
Q 38.578125 46.6875 34.90625 46.6875 
Q 28.265625 46.6875 24.71875 42.09375 
Q 21.1875 37.5 21.1875 28.90625 
L 21.1875 5.171875 
L 31.59375 5.171875 
L 31.59375 0 
L 4.109375 0 
L 4.109375 5.171875 
L 12.203125 5.171875 
L 12.203125 46.78125 
L 3.609375 46.78125 
L 3.609375 51.90625 
L 21.1875 51.90625 
L 21.1875 42.671875 
Q 23.828125 48.09375 27.96875 50.703125 
Q 32.125 53.328125 38.09375 53.328125 
Q 40.28125 53.328125 42.703125 52.984375 
Q 45.125 52.640625 47.796875 52 
" id="BitstreamVeraSerif-Roman-72"/>
       <path d="M 64.015625 51.125 
Q 62.3125 60.25 56.890625 64.625 
Q 51.46875 69 41.796875 69 
Q 29.203125 69 23 60.890625 
Q 16.796875 52.78125 16.796875 36.375 
Q 16.796875 20.3125 23.1875 12.0625 
Q 29.59375 3.8125 42 3.8125 
Q 47.515625 3.8125 52.53125 5.171875 
Q 57.5625 6.546875 62.109375 9.28125 
L 62.109375 28.078125 
L 48.390625 28.078125 
L 48.390625 33.296875 
L 72.015625 33.296875 
L 72.015625 6.109375 
Q 65.53125 2.34375 58.03125 0.453125 
Q 50.53125 -1.421875 42 -1.421875 
Q 25.484375 -1.421875 15.546875 8.90625 
Q 5.609375 19.234375 5.609375 36.375 
Q 5.609375 53.65625 15.5625 63.9375 
Q 25.53125 74.21875 42.390625 74.21875 
Q 48.640625 74.21875 55.296875 72.78125 
Q 61.96875 71.34375 69.484375 68.40625 
L 69.484375 51.125 
z
" id="BitstreamVeraSerif-Roman-47"/>
       <path d="M 4.109375 0 
L 4.109375 5.171875 
L 12.203125 5.171875 
L 12.203125 70.796875 
L 3.609375 70.796875 
L 3.609375 75.984375 
L 21.1875 75.984375 
L 21.1875 42.671875 
Q 23.6875 47.953125 27.65625 50.640625 
Q 31.640625 53.328125 36.921875 53.328125 
Q 45.515625 53.328125 49.5625 48.390625 
Q 53.609375 43.453125 53.609375 33.015625 
L 53.609375 5.171875 
L 61.625 5.171875 
L 61.625 0 
L 36.8125 0 
L 36.8125 5.171875 
L 44.578125 5.171875 
L 44.578125 30.171875 
Q 44.578125 39.703125 42.25 43.1875 
Q 39.9375 46.6875 33.984375 46.6875 
Q 27.734375 46.6875 24.453125 42.140625 
Q 21.1875 37.59375 21.1875 28.90625 
L 21.1875 5.171875 
L 29 5.171875 
L 29 0 
z
" id="BitstreamVeraSerif-Roman-68"/>
      </defs>
      <g style="fill:#262626;" transform="translate(272.930986609 431.330115571)rotate(-45.0)scale(0.17 -0.17)">
       <use xlink:href="#BitstreamVeraSerif-Roman-47"/>
       <use x="79.8828125" xlink:href="#BitstreamVeraSerif-Roman-68"/>
       <use x="144.287109375" xlink:href="#BitstreamVeraSerif-Roman-6f"/>
       <use x="204.4921875" xlink:href="#BitstreamVeraSerif-Roman-73"/>
       <use x="255.810546875" xlink:href="#BitstreamVeraSerif-Roman-74"/>
       <use x="295.99609375" xlink:href="#BitstreamVeraSerif-Roman-65"/>
       <use x="355.17578125" xlink:href="#BitstreamVeraSerif-Roman-72"/>
       <use x="402.978515625" xlink:href="#BitstreamVeraSerif-Roman-79"/>
      </g>
     </g>
    </g>
    <g id="xtick_3">
     <g id="line2d_3">
      <g>
       <use style="fill:#262626;stroke:#262626;" x="501.438986607" xlink:href="#m313b19d892" y="353.96240625"/>
      </g>
     </g>
     <g id="text_3">
      <!-- Disconnect -->
      <defs>
       <path d="M 24.703125 5.171875 
L 33.796875 5.171875 
Q 48 5.171875 55.59375 13.28125 
Q 63.1875 21.390625 63.1875 36.53125 
Q 63.1875 51.65625 55.609375 59.65625 
Q 48.046875 67.671875 33.796875 67.671875 
L 24.703125 67.671875 
z
M 5.515625 0 
L 5.515625 5.171875 
L 14.796875 5.171875 
L 14.796875 67.671875 
L 5.515625 67.671875 
L 5.515625 72.90625 
L 34.515625 72.90625 
Q 53.375 72.90625 63.890625 63.28125 
Q 74.421875 53.65625 74.421875 36.53125 
Q 74.421875 19.34375 63.875 9.671875 
Q 53.328125 0 34.515625 0 
z
" id="BitstreamVeraSerif-Roman-44"/>
       <path d="M 4.109375 0 
L 4.109375 5.171875 
L 12.203125 5.171875 
L 12.203125 46.6875 
L 3.609375 46.6875 
L 3.609375 51.90625 
L 21.1875 51.90625 
L 21.1875 42.671875 
Q 23.6875 47.953125 27.65625 50.640625 
Q 31.640625 53.328125 36.921875 53.328125 
Q 45.515625 53.328125 49.5625 48.390625 
Q 53.609375 43.453125 53.609375 33.015625 
L 53.609375 5.171875 
L 61.625 5.171875 
L 61.625 0 
L 36.8125 0 
L 36.8125 5.171875 
L 44.578125 5.171875 
L 44.578125 30.171875 
Q 44.578125 39.703125 42.234375 43.234375 
Q 39.890625 46.78125 33.984375 46.78125 
Q 27.734375 46.78125 24.453125 42.203125 
Q 21.1875 37.640625 21.1875 28.90625 
L 21.1875 5.171875 
L 29 5.171875 
L 29 0 
z
" id="BitstreamVeraSerif-Roman-6e"/>
      </defs>
      <g style="fill:#262626;" transform="translate(431.158538771 443.876841519)rotate(-45.0)scale(0.17 -0.17)">
       <use xlink:href="#BitstreamVeraSerif-Roman-44"/>
       <use x="80.17578125" xlink:href="#BitstreamVeraSerif-Roman-69"/>
       <use x="112.158203125" xlink:href="#BitstreamVeraSerif-Roman-73"/>
       <use x="163.4765625" xlink:href="#BitstreamVeraSerif-Roman-63"/>
       <use x="219.482421875" xlink:href="#BitstreamVeraSerif-Roman-6f"/>
       <use x="279.6875" xlink:href="#BitstreamVeraSerif-Roman-6e"/>
       <use x="344.091796875" xlink:href="#BitstreamVeraSerif-Roman-6e"/>
       <use x="408.49609375" xlink:href="#BitstreamVeraSerif-Roman-65"/>
       <use x="467.67578125" xlink:href="#BitstreamVeraSerif-Roman-63"/>
       <use x="523.681640625" xlink:href="#BitstreamVeraSerif-Roman-74"/>
      </g>
     </g>
    </g>
    <g id="xtick_4">
     <g id="line2d_4">
      <g>
       <use style="fill:#262626;stroke:#262626;" x="672.04234375" xlink:href="#m313b19d892" y="353.96240625"/>
      </g>
     </g>
     <g id="text_4">
      <!-- uBlock -->
      <defs>
       <path d="M 24.703125 5.171875 
L 39.3125 5.171875 
Q 48.09375 5.171875 52.140625 8.984375 
Q 56.203125 12.796875 56.203125 21.09375 
Q 56.203125 29.34375 52.171875 33.125 
Q 48.140625 36.921875 39.3125 36.921875 
L 24.703125 36.921875 
z
M 24.703125 42.09375 
L 37.109375 42.09375 
Q 45.125 42.09375 48.796875 45.171875 
Q 52.484375 48.25 52.484375 54.890625 
Q 52.484375 61.578125 48.796875 64.625 
Q 45.125 67.671875 37.109375 67.671875 
L 24.703125 67.671875 
z
M 5.515625 0 
L 5.515625 5.171875 
L 14.796875 5.171875 
L 14.796875 67.671875 
L 5.515625 67.671875 
L 5.515625 72.90625 
L 41.5 72.90625 
Q 52.546875 72.90625 58.125 68.390625 
Q 63.71875 63.875 63.71875 54.890625 
Q 63.71875 48.390625 59.828125 44.53125 
Q 55.953125 40.671875 48.484375 39.796875 
Q 57.765625 38.625 62.578125 33.859375 
Q 67.390625 29.109375 67.390625 21.09375 
Q 67.390625 10.25 60.546875 5.125 
Q 53.71875 0 39.203125 0 
z
" id="BitstreamVeraSerif-Roman-42"/>
       <path d="M 28.609375 0 
L 3.421875 0 
L 3.421875 5.171875 
L 11.53125 5.171875 
L 11.53125 70.796875 
L 2.875 70.796875 
L 2.875 75.984375 
L 20.515625 75.984375 
L 20.515625 26.515625 
L 42.390625 46.6875 
L 34.90625 46.6875 
L 34.90625 51.90625 
L 58.40625 51.90625 
L 58.40625 46.6875 
L 49.515625 46.6875 
L 34.078125 32.421875 
L 53.8125 5.171875 
L 61.28125 5.171875 
L 61.28125 0 
L 35.6875 0 
L 35.6875 5.171875 
L 43.109375 5.171875 
L 27.59375 26.515625 
L 20.515625 19.921875 
L 20.515625 5.171875 
L 28.609375 5.171875 
z
" id="BitstreamVeraSerif-Roman-6b"/>
      </defs>
      <g style="fill:#262626;" transform="translate(627.8696041 417.769133333)rotate(-45.0)scale(0.17 -0.17)">
       <use xlink:href="#BitstreamVeraSerif-Roman-75"/>
       <use x="64.404296875" xlink:href="#BitstreamVeraSerif-Roman-42"/>
       <use x="137.890625" xlink:href="#BitstreamVeraSerif-Roman-6c"/>
       <use x="169.873046875" xlink:href="#BitstreamVeraSerif-Roman-6f"/>
       <use x="230.078125" xlink:href="#BitstreamVeraSerif-Roman-63"/>
       <use x="286.083984375" xlink:href="#BitstreamVeraSerif-Roman-6b"/>
      </g>
     </g>
    </g>
    <g id="xtick_5">
     <g id="line2d_5">
      <g>
       <use style="fill:#262626;stroke:#262626;" x="842.645700893" xlink:href="#m313b19d892" y="353.96240625"/>
      </g>
     </g>
     <g id="text_5">
      <!-- AdBlock Plus -->
      <defs>
       <path d="M 52.484375 5.171875 
L 61.078125 5.171875 
L 61.078125 0 
L 43.5 0 
L 43.5 8.109375 
Q 40.875 3.21875 36.796875 0.890625 
Q 32.71875 -1.421875 26.703125 -1.421875 
Q 17.140625 -1.421875 11.0625 6.171875 
Q 4.984375 13.765625 4.984375 25.984375 
Q 4.984375 38.1875 11.03125 45.75 
Q 17.09375 53.328125 26.703125 53.328125 
Q 32.71875 53.328125 36.796875 51 
Q 40.875 48.6875 43.5 43.796875 
L 43.5 70.796875 
L 35.015625 70.796875 
L 35.015625 75.984375 
L 52.484375 75.984375 
z
M 43.5 23.390625 
L 43.5 28.515625 
Q 43.5 37.84375 39.90625 42.765625 
Q 36.328125 47.703125 29.5 47.703125 
Q 22.5625 47.703125 19.015625 42.234375 
Q 15.484375 36.765625 15.484375 25.984375 
Q 15.484375 15.234375 19.015625 9.71875 
Q 22.5625 4.203125 29.5 4.203125 
Q 36.328125 4.203125 39.90625 9.109375 
Q 43.5 14.015625 43.5 23.390625 
" id="BitstreamVeraSerif-Roman-64"/>
       <path d="M 20.015625 26.421875 
L 46.78125 26.421875 
L 33.40625 61.078125 
z
M -0.59375 0 
L -0.59375 5.171875 
L 5.8125 5.171875 
L 31.78125 72.90625 
L 39.984375 72.90625 
L 66.015625 5.171875 
L 73.1875 5.171875 
L 73.1875 0 
L 46.6875 0 
L 46.6875 5.171875 
L 54.78125 5.171875 
L 48.6875 21.1875 
L 18.015625 21.1875 
L 11.921875 5.171875 
L 19.921875 5.171875 
L 19.921875 0 
z
" id="BitstreamVeraSerif-Roman-41"/>
      </defs>
      <g style="fill:#262626;" transform="translate(760.175395061 456.066699514)rotate(-45.0)scale(0.17 -0.17)">
       <use xlink:href="#BitstreamVeraSerif-Roman-41"/>
       <use x="72.216796875" xlink:href="#BitstreamVeraSerif-Roman-64"/>
       <use x="136.23046875" xlink:href="#BitstreamVeraSerif-Roman-42"/>
       <use x="209.716796875" xlink:href="#BitstreamVeraSerif-Roman-6c"/>
       <use x="241.69921875" xlink:href="#BitstreamVeraSerif-Roman-6f"/>
       <use x="301.904296875" xlink:href="#BitstreamVeraSerif-Roman-63"/>
       <use x="357.91015625" xlink:href="#BitstreamVeraSerif-Roman-6b"/>
       <use x="418.505859375" xlink:href="#BitstreamVeraSerif-Roman-20"/>
       <use x="450.29296875" xlink:href="#BitstreamVeraSerif-Roman-50"/>
       <use x="517.578125" xlink:href="#BitstreamVeraSerif-Roman-6c"/>
       <use x="549.560546875" xlink:href="#BitstreamVeraSerif-Roman-75"/>
       <use x="613.96484375" xlink:href="#BitstreamVeraSerif-Roman-73"/>
      </g>
     </g>
    </g>
    <g id="xtick_6">
     <g id="line2d_6">
      <g>
       <use style="fill:#262626;stroke:#262626;" x="1013.24905804" xlink:href="#m313b19d892" y="353.96240625"/>
      </g>
     </g>
     <g id="text_6">
      <!-- Blur -->
      <g style="fill:#262626;" transform="translate(984.583170097 402.262281621)rotate(-45.0)scale(0.17 -0.17)">
       <use xlink:href="#BitstreamVeraSerif-Roman-42"/>
       <use x="73.486328125" xlink:href="#BitstreamVeraSerif-Roman-6c"/>
       <use x="105.46875" xlink:href="#BitstreamVeraSerif-Roman-75"/>
       <use x="169.873046875" xlink:href="#BitstreamVeraSerif-Roman-72"/>
      </g>
     </g>
    </g>
    <g id="xtick_7">
     <g id="line2d_7">
      <g>
       <use style="fill:#262626;stroke:#262626;" x="1183.85241518" xlink:href="#m313b19d892" y="353.96240625"/>
      </g>
     </g>
     <g id="text_7">
      <!-- Privacy Badger -->
      <defs>
       <path d="M 52.484375 46.6875 
L 52.484375 1.125 
Q 52.484375 -10.0625 46.328125 -16.140625 
Q 40.1875 -22.21875 28.8125 -22.21875 
Q 23.6875 -22.21875 19 -21.28125 
Q 14.3125 -20.359375 10.015625 -18.5 
L 10.015625 -7.625 
L 14.703125 -7.625 
Q 15.578125 -12.703125 18.84375 -15.046875 
Q 22.125 -17.390625 28.21875 -17.390625 
Q 36.140625 -17.390625 39.8125 -12.921875 
Q 43.5 -8.453125 43.5 1.125 
L 43.5 8.109375 
Q 40.875 3.21875 36.796875 0.890625 
Q 32.71875 -1.421875 26.703125 -1.421875 
Q 17.140625 -1.421875 11.0625 6.171875 
Q 4.984375 13.765625 4.984375 25.984375 
Q 4.984375 38.1875 11.03125 45.75 
Q 17.09375 53.328125 26.703125 53.328125 
Q 32.71875 53.328125 36.796875 51 
Q 40.875 48.6875 43.5 43.796875 
L 43.5 51.90625 
L 61.078125 51.90625 
L 61.078125 46.6875 
z
M 43.5 28.515625 
Q 43.5 37.84375 39.90625 42.765625 
Q 36.328125 47.703125 29.5 47.703125 
Q 22.5625 47.703125 19.015625 42.234375 
Q 15.484375 36.765625 15.484375 25.984375 
Q 15.484375 15.234375 19.015625 9.71875 
Q 22.5625 4.203125 29.5 4.203125 
Q 36.328125 4.203125 39.90625 9.109375 
Q 43.5 14.015625 43.5 23.390625 
z
" id="BitstreamVeraSerif-Roman-67"/>
       <path d="M 39.796875 16.3125 
L 39.796875 27.296875 
L 28.21875 27.296875 
Q 21.53125 27.296875 18.25 24.40625 
Q 14.984375 21.53125 14.984375 15.578125 
Q 14.984375 10.15625 18.296875 6.984375 
Q 21.625 3.8125 27.296875 3.8125 
Q 32.90625 3.8125 36.34375 7.28125 
Q 39.796875 10.75 39.796875 16.3125 
M 48.78125 32.421875 
L 48.78125 5.171875 
L 56.78125 5.171875 
L 56.78125 0 
L 39.796875 0 
L 39.796875 5.609375 
Q 36.8125 2 32.90625 0.28125 
Q 29 -1.421875 23.78125 -1.421875 
Q 15.140625 -1.421875 10.0625 3.171875 
Q 4.984375 7.765625 4.984375 15.578125 
Q 4.984375 23.640625 10.796875 28.078125 
Q 16.609375 32.515625 27.203125 32.515625 
L 39.796875 32.515625 
L 39.796875 36.078125 
Q 39.796875 42 36.203125 45.234375 
Q 32.625 48.484375 26.125 48.484375 
Q 20.75 48.484375 17.578125 46.046875 
Q 14.40625 43.609375 13.625 38.8125 
L 8.984375 38.8125 
L 8.984375 49.3125 
Q 13.671875 51.3125 18.09375 52.3125 
Q 22.515625 53.328125 26.703125 53.328125 
Q 37.5 53.328125 43.140625 47.96875 
Q 48.78125 42.625 48.78125 32.421875 
" id="BitstreamVeraSerif-Roman-61"/>
       <path d="M 24.703125 0 
L 5.609375 46.6875 
L -0.296875 46.6875 
L -0.296875 51.90625 
L 23.578125 51.90625 
L 23.578125 46.6875 
L 15.28125 46.6875 
L 29.890625 10.984375 
L 44.484375 46.6875 
L 36.71875 46.6875 
L 36.71875 51.90625 
L 56.203125 51.90625 
L 56.203125 46.6875 
L 50.390625 46.6875 
L 31.296875 0 
z
" id="BitstreamVeraSerif-Roman-76"/>
      </defs>
      <g style="fill:#262626;" transform="translate(1087.94884827 469.329039623)rotate(-45.0)scale(0.17 -0.17)">
       <use xlink:href="#BitstreamVeraSerif-Roman-50"/>
       <use x="67.28515625" xlink:href="#BitstreamVeraSerif-Roman-72"/>
       <use x="115.087890625" xlink:href="#BitstreamVeraSerif-Roman-69"/>
       <use x="147.0703125" xlink:href="#BitstreamVeraSerif-Roman-76"/>
       <use x="203.564453125" xlink:href="#BitstreamVeraSerif-Roman-61"/>
       <use x="263.18359375" xlink:href="#BitstreamVeraSerif-Roman-63"/>
       <use x="319.189453125" xlink:href="#BitstreamVeraSerif-Roman-79"/>
       <use x="375.68359375" xlink:href="#BitstreamVeraSerif-Roman-20"/>
       <use x="407.470703125" xlink:href="#BitstreamVeraSerif-Roman-42"/>
       <use x="480.95703125" xlink:href="#BitstreamVeraSerif-Roman-61"/>
       <use x="540.576171875" xlink:href="#BitstreamVeraSerif-Roman-64"/>
       <use x="604.58984375" xlink:href="#BitstreamVeraSerif-Roman-67"/>
       <use x="668.603515625" xlink:href="#BitstreamVeraSerif-Roman-65"/>
       <use x="727.783203125" xlink:href="#BitstreamVeraSerif-Roman-72"/>
      </g>
     </g>
    </g>
   </g>
   <g id="matplotlib.axis_2">
    <g id="ytick_1">
     <g id="line2d_8">
      <defs>
       <path d="M 0 0 
L -6 0 
" id="m54cffd41f7" style="stroke:#262626;"/>
      </defs>
      <g>
       <use style="fill:#262626;stroke:#262626;" x="64.93059375" xlink:href="#m54cffd41f7" y="343.96240625"/>
      </g>
     </g>
     <g id="text_8">
      <!-- 0 -->
      <defs>
       <path d="M 31.78125 3.421875 
Q 39.265625 3.421875 42.96875 11.625 
Q 46.6875 19.828125 46.6875 36.375 
Q 46.6875 52.984375 42.96875 61.1875 
Q 39.265625 69.390625 31.78125 69.390625 
Q 24.3125 69.390625 20.59375 61.1875 
Q 16.890625 52.984375 16.890625 36.375 
Q 16.890625 19.828125 20.59375 11.625 
Q 24.3125 3.421875 31.78125 3.421875 
M 31.78125 -1.421875 
Q 19.921875 -1.421875 13.25 8.53125 
Q 6.59375 18.5 6.59375 36.375 
Q 6.59375 54.296875 13.25 64.25 
Q 19.921875 74.21875 31.78125 74.21875 
Q 43.703125 74.21875 50.34375 64.25 
Q 56.984375 54.296875 56.984375 36.375 
Q 56.984375 18.5 50.34375 8.53125 
Q 43.703125 -1.421875 31.78125 -1.421875 
" id="BitstreamVeraSerif-Roman-30"/>
      </defs>
      <g style="fill:#262626;" transform="translate(41.11434375 348.65334375)scale(0.17 -0.17)">
       <use xlink:href="#BitstreamVeraSerif-Roman-30"/>
      </g>
     </g>
    </g>
    <g id="ytick_2">
     <g id="line2d_9">
      <g>
       <use style="fill:#262626;stroke:#262626;" x="64.93059375" xlink:href="#m54cffd41f7" y="302.89540625"/>
      </g>
     </g>
     <g id="text_9">
      <!-- 10 -->
      <defs>
       <path d="M 14.203125 0 
L 14.203125 5.171875 
L 26.90625 5.171875 
L 26.90625 65.828125 
L 12.203125 56.296875 
L 12.203125 62.703125 
L 29.984375 74.21875 
L 36.71875 74.21875 
L 36.71875 5.171875 
L 49.421875 5.171875 
L 49.421875 0 
z
" id="BitstreamVeraSerif-Roman-31"/>
      </defs>
      <g style="fill:#262626;" transform="translate(30.29809375 307.58634375)scale(0.17 -0.17)">
       <use xlink:href="#BitstreamVeraSerif-Roman-31"/>
       <use x="63.623046875" xlink:href="#BitstreamVeraSerif-Roman-30"/>
      </g>
     </g>
    </g>
    <g id="ytick_3">
     <g id="line2d_10">
      <g>
       <use style="fill:#262626;stroke:#262626;" x="64.93059375" xlink:href="#m54cffd41f7" y="261.82840625"/>
      </g>
     </g>
     <g id="text_10">
      <!-- 20 -->
      <defs>
       <path d="M 12.796875 55.515625 
L 7.328125 55.515625 
L 7.328125 68.5 
Q 12.546875 71.296875 17.84375 72.75 
Q 23.140625 74.21875 28.21875 74.21875 
Q 39.59375 74.21875 46.1875 68.703125 
Q 52.78125 63.1875 52.78125 53.71875 
Q 52.78125 43.015625 37.84375 28.125 
Q 36.671875 27 36.078125 26.421875 
L 17.671875 8.015625 
L 48.09375 8.015625 
L 48.09375 17 
L 53.8125 17 
L 53.8125 0 
L 6.78125 0 
L 6.78125 5.328125 
L 28.90625 27.390625 
Q 36.234375 34.71875 39.359375 40.84375 
Q 42.484375 46.96875 42.484375 53.71875 
Q 42.484375 61.078125 38.640625 65.234375 
Q 34.8125 69.390625 28.078125 69.390625 
Q 21.09375 69.390625 17.28125 65.921875 
Q 13.484375 62.453125 12.796875 55.515625 
" id="BitstreamVeraSerif-Roman-32"/>
      </defs>
      <g style="fill:#262626;" transform="translate(30.29809375 266.51934375)scale(0.17 -0.17)">
       <use xlink:href="#BitstreamVeraSerif-Roman-32"/>
       <use x="63.623046875" xlink:href="#BitstreamVeraSerif-Roman-30"/>
      </g>
     </g>
    </g>
    <g id="ytick_4">
     <g id="line2d_11">
      <g>
       <use style="fill:#262626;stroke:#262626;" x="64.93059375" xlink:href="#m54cffd41f7" y="220.76140625"/>
      </g>
     </g>
     <g id="text_11">
      <!-- 30 -->
      <defs>
       <path d="M 9.71875 69.828125 
Q 15.4375 71.96875 20.671875 73.09375 
Q 25.921875 74.21875 30.515625 74.21875 
Q 41.21875 74.21875 47.21875 69.59375 
Q 53.21875 64.984375 53.21875 56.78125 
Q 53.21875 50.203125 49.0625 45.78125 
Q 44.921875 41.359375 37.3125 39.796875 
Q 46.296875 38.53125 51.25 33.28125 
Q 56.203125 28.03125 56.203125 19.671875 
Q 56.203125 9.46875 49.34375 4.015625 
Q 42.484375 -1.421875 29.59375 -1.421875 
Q 23.875 -1.421875 18.421875 -0.1875 
Q 12.984375 1.03125 7.625 3.515625 
L 7.625 17.671875 
L 13.09375 17.671875 
Q 13.578125 10.640625 17.828125 7.03125 
Q 22.078125 3.421875 29.78125 3.421875 
Q 37.25 3.421875 41.578125 7.734375 
Q 45.90625 12.0625 45.90625 19.578125 
Q 45.90625 28.171875 41.453125 32.59375 
Q 37.015625 37.015625 28.421875 37.015625 
L 23.78125 37.015625 
L 23.78125 42 
L 26.21875 42 
Q 34.765625 42 39.03125 45.53125 
Q 43.3125 49.078125 43.3125 56.203125 
Q 43.3125 62.59375 39.796875 65.984375 
Q 36.28125 69.390625 29.6875 69.390625 
Q 23.09375 69.390625 19.453125 66.265625 
Q 15.828125 63.140625 15.1875 56.984375 
L 9.71875 56.984375 
z
" id="BitstreamVeraSerif-Roman-33"/>
      </defs>
      <g style="fill:#262626;" transform="translate(30.29809375 225.45234375)scale(0.17 -0.17)">
       <use xlink:href="#BitstreamVeraSerif-Roman-33"/>
       <use x="63.623046875" xlink:href="#BitstreamVeraSerif-Roman-30"/>
      </g>
     </g>
    </g>
    <g id="ytick_5">
     <g id="line2d_12">
      <g>
       <use style="fill:#262626;stroke:#262626;" x="64.93059375" xlink:href="#m54cffd41f7" y="179.69440625"/>
      </g>
     </g>
     <g id="text_12">
      <!-- 40 -->
      <defs>
       <path d="M 34.90625 24.703125 
L 34.90625 63.484375 
L 10.015625 24.703125 
z
M 56.390625 0 
L 23.1875 0 
L 23.1875 5.171875 
L 34.90625 5.171875 
L 34.90625 19.484375 
L 3.078125 19.484375 
L 3.078125 24.8125 
L 35.015625 74.21875 
L 44.671875 74.21875 
L 44.671875 24.703125 
L 58.59375 24.703125 
L 58.59375 19.484375 
L 44.671875 19.484375 
L 44.671875 5.171875 
L 56.390625 5.171875 
z
" id="BitstreamVeraSerif-Roman-34"/>
      </defs>
      <g style="fill:#262626;" transform="translate(30.29809375 184.38534375)scale(0.17 -0.17)">
       <use xlink:href="#BitstreamVeraSerif-Roman-34"/>
       <use x="63.623046875" xlink:href="#BitstreamVeraSerif-Roman-30"/>
      </g>
     </g>
    </g>
    <g id="ytick_6">
     <g id="line2d_13">
      <g>
       <use style="fill:#262626;stroke:#262626;" x="64.93059375" xlink:href="#m54cffd41f7" y="138.62740625"/>
      </g>
     </g>
     <g id="text_13">
      <!-- 50 -->
      <defs>
       <path d="M 50.296875 72.90625 
L 50.296875 64.890625 
L 16.890625 64.890625 
L 16.890625 44 
Q 19.4375 45.75 22.828125 46.625 
Q 26.21875 47.515625 30.421875 47.515625 
Q 42.234375 47.515625 49.0625 40.96875 
Q 55.90625 34.421875 55.90625 23.09375 
Q 55.90625 11.53125 49 5.046875 
Q 42.09375 -1.421875 29.59375 -1.421875 
Q 24.5625 -1.421875 19.28125 -0.1875 
Q 14.015625 1.03125 8.5 3.515625 
L 8.5 17.671875 
L 14.015625 17.671875 
Q 14.453125 10.75 18.421875 7.078125 
Q 22.40625 3.421875 29.59375 3.421875 
Q 37.3125 3.421875 41.453125 8.5 
Q 45.609375 13.578125 45.609375 23.09375 
Q 45.609375 32.5625 41.484375 37.609375 
Q 37.359375 42.671875 29.59375 42.671875 
Q 25.203125 42.671875 21.84375 41.109375 
Q 18.5 39.546875 15.921875 36.28125 
L 11.71875 36.28125 
L 11.71875 72.90625 
z
" id="BitstreamVeraSerif-Roman-35"/>
      </defs>
      <g style="fill:#262626;" transform="translate(30.29809375 143.31834375)scale(0.17 -0.17)">
       <use xlink:href="#BitstreamVeraSerif-Roman-35"/>
       <use x="63.623046875" xlink:href="#BitstreamVeraSerif-Roman-30"/>
      </g>
     </g>
    </g>
    <g id="ytick_7">
     <g id="line2d_14">
      <g>
       <use style="fill:#262626;stroke:#262626;" x="64.93059375" xlink:href="#m54cffd41f7" y="97.56040625"/>
      </g>
     </g>
     <g id="text_14">
      <!-- 60 -->
      <defs>
       <path d="M 32.71875 3.421875 
Q 39.59375 3.421875 43.296875 8.46875 
Q 47.015625 13.53125 47.015625 23 
Q 47.015625 32.46875 43.296875 37.515625 
Q 39.59375 42.578125 32.71875 42.578125 
Q 25.734375 42.578125 22.0625 37.6875 
Q 18.40625 32.8125 18.40625 23.578125 
Q 18.40625 13.875 22.109375 8.640625 
Q 25.828125 3.421875 32.71875 3.421875 
M 16.796875 40.140625 
Q 20.125 43.796875 24.3125 45.59375 
Q 28.515625 47.40625 33.796875 47.40625 
Q 44.671875 47.40625 51 40.859375 
Q 57.328125 34.328125 57.328125 23 
Q 57.328125 11.921875 50.515625 5.25 
Q 43.703125 -1.421875 32.328125 -1.421875 
Q 19.96875 -1.421875 13.328125 7.78125 
Q 6.6875 17 6.6875 34.078125 
Q 6.6875 53.21875 14.546875 63.71875 
Q 22.40625 74.21875 36.71875 74.21875 
Q 40.578125 74.21875 44.828125 73.484375 
Q 49.078125 72.75 53.515625 71.296875 
L 53.515625 59.28125 
L 48 59.28125 
Q 47.40625 64.203125 44.234375 66.796875 
Q 41.0625 69.390625 35.6875 69.390625 
Q 26.21875 69.390625 21.578125 62.203125 
Q 16.9375 55.03125 16.796875 40.140625 
" id="BitstreamVeraSerif-Roman-36"/>
      </defs>
      <g style="fill:#262626;" transform="translate(30.29809375 102.25134375)scale(0.17 -0.17)">
       <use xlink:href="#BitstreamVeraSerif-Roman-36"/>
       <use x="63.623046875" xlink:href="#BitstreamVeraSerif-Roman-30"/>
      </g>
     </g>
    </g>
    <g id="ytick_8">
     <g id="line2d_15">
      <g>
       <use style="fill:#262626;stroke:#262626;" x="64.93059375" xlink:href="#m54cffd41f7" y="56.49340625"/>
      </g>
     </g>
     <g id="text_15">
      <!-- 70 -->
      <defs>
       <path d="M 56.390625 67.921875 
L 27.875 0 
L 20.609375 0 
L 47.796875 64.890625 
L 14.109375 64.890625 
L 14.109375 55.90625 
L 8.40625 55.90625 
L 8.40625 72.90625 
L 56.390625 72.90625 
z
" id="BitstreamVeraSerif-Roman-37"/>
      </defs>
      <g style="fill:#262626;" transform="translate(30.29809375 61.18434375)scale(0.17 -0.17)">
       <use xlink:href="#BitstreamVeraSerif-Roman-37"/>
       <use x="63.623046875" xlink:href="#BitstreamVeraSerif-Roman-30"/>
      </g>
     </g>
    </g>
    <g id="ytick_9">
     <g id="line2d_16">
      <g>
       <use style="fill:#262626;stroke:#262626;" x="64.93059375" xlink:href="#m54cffd41f7" y="15.42640625"/>
      </g>
     </g>
     <g id="text_16">
      <!-- 80 -->
      <defs>
       <path d="M 46.578125 19.921875 
Q 46.578125 27.734375 42.6875 32.046875 
Q 38.8125 36.375 31.78125 36.375 
Q 24.75 36.375 20.875 32.046875 
Q 17 27.734375 17 19.921875 
Q 17 12.0625 20.875 7.734375 
Q 24.75 3.421875 31.78125 3.421875 
Q 38.8125 3.421875 42.6875 7.734375 
Q 46.578125 12.0625 46.578125 19.921875 
M 44.578125 55.328125 
Q 44.578125 61.96875 41.203125 65.671875 
Q 37.84375 69.390625 31.78125 69.390625 
Q 25.78125 69.390625 22.390625 65.671875 
Q 19 61.96875 19 55.328125 
Q 19 48.640625 22.390625 44.921875 
Q 25.78125 41.21875 31.78125 41.21875 
Q 37.84375 41.21875 41.203125 44.921875 
Q 44.578125 48.640625 44.578125 55.328125 
M 39.3125 38.8125 
Q 47.609375 37.703125 52.25 32.6875 
Q 56.890625 27.6875 56.890625 19.921875 
Q 56.890625 9.671875 50.390625 4.125 
Q 43.890625 -1.421875 31.78125 -1.421875 
Q 19.734375 -1.421875 13.203125 4.125 
Q 6.6875 9.671875 6.6875 19.921875 
Q 6.6875 27.6875 11.328125 32.6875 
Q 15.96875 37.703125 24.3125 38.8125 
Q 16.9375 40.140625 13 44.40625 
Q 9.078125 48.6875 9.078125 55.328125 
Q 9.078125 64.109375 15.125 69.15625 
Q 21.1875 74.21875 31.78125 74.21875 
Q 42.390625 74.21875 48.4375 69.15625 
Q 54.5 64.109375 54.5 55.328125 
Q 54.5 48.6875 50.5625 44.40625 
Q 46.625 40.140625 39.3125 38.8125 
" id="BitstreamVeraSerif-Roman-38"/>
      </defs>
      <g style="fill:#262626;" transform="translate(30.29809375 20.11734375)scale(0.17 -0.17)">
       <use xlink:href="#BitstreamVeraSerif-Roman-38"/>
       <use x="63.623046875" xlink:href="#BitstreamVeraSerif-Roman-30"/>
      </g>
     </g>
    </g>
    <g id="text_17">
     <!-- Volume reduction (%) -->
     <defs>
      <path d="M 31.890625 -15.578125 
Q 20.015625 -10.25 13.953125 1.296875 
Q 7.90625 12.84375 7.90625 30.171875 
Q 7.90625 47.5625 13.953125 59.109375 
Q 20.015625 70.65625 31.890625 75.984375 
L 31.890625 71.1875 
Q 24.359375 66.015625 21.09375 56.609375 
Q 17.828125 47.21875 17.828125 30.171875 
Q 17.828125 13.1875 21.09375 3.78125 
Q 24.359375 -5.609375 31.890625 -10.796875 
z
" id="BitstreamVeraSerif-Roman-28"/>
      <path d="M 7.078125 -15.578125 
L 7.078125 -10.796875 
Q 14.59375 -5.609375 17.890625 3.78125 
Q 21.1875 13.1875 21.1875 30.171875 
Q 21.1875 47.21875 17.890625 56.609375 
Q 14.59375 66.015625 7.078125 71.1875 
L 7.078125 75.984375 
Q 19 70.65625 25.046875 59.109375 
Q 31.109375 47.5625 31.109375 30.171875 
Q 31.109375 12.84375 25.046875 1.296875 
Q 19 -10.25 7.078125 -15.578125 
" id="BitstreamVeraSerif-Roman-29"/>
      <path d="M 17.484375 67.671875 
L 39.015625 11.71875 
L 60.5 67.671875 
L 52.296875 67.671875 
L 52.296875 72.90625 
L 73.6875 72.90625 
L 73.6875 67.671875 
L 66.609375 67.671875 
L 40.578125 0 
L 32.171875 0 
L 6.296875 67.671875 
L -0.984375 67.671875 
L -0.984375 72.90625 
L 25.59375 72.90625 
L 25.59375 67.671875 
z
" id="BitstreamVeraSerif-Roman-56"/>
      <path d="M 51.8125 41.796875 
Q 54.390625 47.515625 58.421875 50.421875 
Q 62.453125 53.328125 67.828125 53.328125 
Q 75.984375 53.328125 79.984375 48.265625 
Q 83.984375 43.21875 83.984375 33.015625 
L 83.984375 5.171875 
L 92.09375 5.171875 
L 92.09375 0 
L 67.1875 0 
L 67.1875 5.171875 
L 75 5.171875 
L 75 31.984375 
Q 75 39.9375 72.65625 43.3125 
Q 70.3125 46.6875 64.890625 46.6875 
Q 58.890625 46.6875 55.734375 42.140625 
Q 52.59375 37.59375 52.59375 28.90625 
L 52.59375 5.171875 
L 60.40625 5.171875 
L 60.40625 0 
L 35.796875 0 
L 35.796875 5.171875 
L 43.609375 5.171875 
L 43.609375 32.328125 
Q 43.609375 40.09375 41.265625 43.390625 
Q 38.921875 46.6875 33.5 46.6875 
Q 27.484375 46.6875 24.328125 42.140625 
Q 21.1875 37.59375 21.1875 28.90625 
L 21.1875 5.171875 
L 29 5.171875 
L 29 0 
L 4.109375 0 
L 4.109375 5.171875 
L 12.203125 5.171875 
L 12.203125 46.78125 
L 3.609375 46.78125 
L 3.609375 51.90625 
L 21.1875 51.90625 
L 21.1875 42.671875 
Q 23.6875 47.859375 27.53125 50.59375 
Q 31.390625 53.328125 36.28125 53.328125 
Q 42.328125 53.328125 46.375 50.3125 
Q 50.4375 47.3125 51.8125 41.796875 
" id="BitstreamVeraSerif-Roman-6d"/>
      <path d="M 22.40625 69.671875 
Q 18.109375 69.671875 15.6875 65.625 
Q 13.28125 61.578125 13.28125 54.296875 
Q 13.28125 47.125 15.75 43.015625 
Q 18.21875 38.921875 22.40625 38.921875 
Q 26.5625 38.921875 28.96875 43 
Q 31.390625 47.078125 31.390625 54.296875 
Q 31.390625 61.53125 28.96875 65.59375 
Q 26.5625 69.671875 22.40625 69.671875 
M 72.703125 33.890625 
Q 68.453125 33.890625 66.03125 29.78125 
Q 63.625 25.6875 63.625 18.40625 
Q 63.625 11.234375 66.0625 7.15625 
Q 68.5 3.078125 72.703125 3.078125 
Q 76.90625 3.078125 79.296875 7.15625 
Q 81.6875 11.234375 81.6875 18.40625 
Q 81.6875 25.640625 79.265625 29.765625 
Q 76.859375 33.890625 72.703125 33.890625 
M 72.703125 38.28125 
Q 80.421875 38.28125 84.953125 32.90625 
Q 89.5 27.546875 89.5 18.40625 
Q 89.5 9.28125 84.9375 3.921875 
Q 80.375 -1.421875 72.703125 -1.421875 
Q 64.890625 -1.421875 60.34375 3.921875 
Q 55.8125 9.28125 55.8125 18.40625 
Q 55.8125 27.59375 60.375 32.9375 
Q 64.9375 38.28125 72.703125 38.28125 
M 66.609375 74.21875 
L 74.03125 74.21875 
L 28.421875 -1.421875 
L 21 -1.421875 
z
M 22.3125 74.21875 
Q 30.03125 74.21875 34.609375 68.875 
Q 39.203125 63.53125 39.203125 54.390625 
Q 39.203125 45.171875 34.640625 39.84375 
Q 30.078125 34.515625 22.3125 34.515625 
Q 14.546875 34.515625 10.03125 39.859375 
Q 5.515625 45.21875 5.515625 54.390625 
Q 5.515625 63.484375 10.046875 68.84375 
Q 14.59375 74.21875 22.3125 74.21875 
" id="BitstreamVeraSerif-Roman-25"/>
     </defs>
     <g style="fill:#262626;" transform="translate(21.409078125 283.244195313)rotate(-90.0)scale(0.187 -0.187)">
      <use xlink:href="#BitstreamVeraSerif-Roman-56"/>
      <use x="72.076171875" xlink:href="#BitstreamVeraSerif-Roman-6f"/>
      <use x="132.28125" xlink:href="#BitstreamVeraSerif-Roman-6c"/>
      <use x="164.263671875" xlink:href="#BitstreamVeraSerif-Roman-75"/>
      <use x="228.66796875" xlink:href="#BitstreamVeraSerif-Roman-6d"/>
      <use x="323.4921875" xlink:href="#BitstreamVeraSerif-Roman-65"/>
      <use x="382.671875" xlink:href="#BitstreamVeraSerif-Roman-20"/>
      <use x="414.458984375" xlink:href="#BitstreamVeraSerif-Roman-72"/>
      <use x="462.26171875" xlink:href="#BitstreamVeraSerif-Roman-65"/>
      <use x="521.44140625" xlink:href="#BitstreamVeraSerif-Roman-64"/>
      <use x="585.455078125" xlink:href="#BitstreamVeraSerif-Roman-75"/>
      <use x="649.859375" xlink:href="#BitstreamVeraSerif-Roman-63"/>
      <use x="705.865234375" xlink:href="#BitstreamVeraSerif-Roman-74"/>
      <use x="746.05078125" xlink:href="#BitstreamVeraSerif-Roman-69"/>
      <use x="778.033203125" xlink:href="#BitstreamVeraSerif-Roman-6f"/>
      <use x="838.23828125" xlink:href="#BitstreamVeraSerif-Roman-6e"/>
      <use x="902.642578125" xlink:href="#BitstreamVeraSerif-Roman-20"/>
      <use x="934.4296875" xlink:href="#BitstreamVeraSerif-Roman-28"/>
      <use x="973.443359375" xlink:href="#BitstreamVeraSerif-Roman-25"/>
      <use x="1068.462890625" xlink:href="#BitstreamVeraSerif-Roman-29"/>
     </g>
    </g>
   </g>
   <g id="patch_3">
    <path clip-path="url(#pa15f6f58fe)" d="M 91.990929 343.962406 
L 105.639198 343.962406 
L 105.639198 183.328371 
L 91.990929 183.328371 
z
" style="fill:#aeccdb;stroke:#000000;stroke-linejoin:miter;stroke-width:0.3;"/>
   </g>
   <g id="patch_4">
    <path clip-path="url(#pa15f6f58fe)" d="M 262.594287 343.962406 
L 276.242555 343.962406 
L 276.242555 114.570218 
L 262.594287 114.570218 
z
" style="fill:#aeccdb;stroke:#000000;stroke-linejoin:miter;stroke-width:0.3;"/>
   </g>
   <g id="patch_5">
    <path clip-path="url(#pa15f6f58fe)" d="M 433.197644 343.962406 
L 446.845912 343.962406 
L 446.845912 129.465664 
L 433.197644 129.465664 
z
" style="fill:#aeccdb;stroke:#000000;stroke-linejoin:miter;stroke-width:0.3;"/>
   </g>
   <g id="patch_6">
    <path clip-path="url(#pa15f6f58fe)" d="M 603.801001 343.962406 
L 617.449269 343.962406 
L 617.449269 215.745331 
L 603.801001 215.745331 
z
" style="fill:#aeccdb;stroke:#000000;stroke-linejoin:miter;stroke-width:0.3;"/>
   </g>
   <g id="patch_7">
    <path clip-path="url(#pa15f6f58fe)" d="M 774.404358 343.962406 
L 788.052627 343.962406 
L 788.052627 258.631888 
L 774.404358 258.631888 
z
" style="fill:#aeccdb;stroke:#000000;stroke-linejoin:miter;stroke-width:0.3;"/>
   </g>
   <g id="patch_8">
    <path clip-path="url(#pa15f6f58fe)" d="M 945.007715 343.962406 
L 958.655984 343.962406 
L 958.655984 322.992339 
L 945.007715 322.992339 
z
" style="fill:#aeccdb;stroke:#000000;stroke-linejoin:miter;stroke-width:0.3;"/>
   </g>
   <g id="patch_9">
    <path clip-path="url(#pa15f6f58fe)" d="M 1115.611072 343.962406 
L 1129.259341 343.962406 
L 1129.259341 252.520077 
L 1115.611072 252.520077 
z
" style="fill:#aeccdb;stroke:#000000;stroke-linejoin:miter;stroke-width:0.3;"/>
   </g>
   <g id="patch_10">
    <path clip-path="url(#pa15f6f58fe)" d="M 105.639198 343.962406 
L 119.287467 343.962406 
L 119.287467 31.875403 
L 105.639198 31.875403 
z
" style="fill:#3274a1;stroke:#000000;stroke-linejoin:miter;stroke-width:0.3;"/>
   </g>
   <g id="patch_11">
    <path clip-path="url(#pa15f6f58fe)" d="M 276.242555 343.962406 
L 289.890824 343.962406 
L 289.890824 282.337358 
L 276.242555 282.337358 
z
" style="fill:#3274a1;stroke:#000000;stroke-linejoin:miter;stroke-width:0.3;"/>
   </g>
   <g id="patch_12">
    <path clip-path="url(#pa15f6f58fe)" d="M 446.845912 343.962406 
L 460.494181 343.962406 
L 460.494181 234.684094 
L 446.845912 234.684094 
z
" style="fill:#3274a1;stroke:#000000;stroke-linejoin:miter;stroke-width:0.3;"/>
   </g>
   <g id="patch_13">
    <path clip-path="url(#pa15f6f58fe)" d="M 617.449269 343.962406 
L 631.097538 343.962406 
L 631.097538 260.218531 
L 617.449269 260.218531 
z
" style="fill:#3274a1;stroke:#000000;stroke-linejoin:miter;stroke-width:0.3;"/>
   </g>
   <g id="patch_14">
    <path clip-path="url(#pa15f6f58fe)" d="M 788.052627 343.962406 
L 801.700895 343.962406 
L 801.700895 295.28339 
L 788.052627 295.28339 
z
" style="fill:#3274a1;stroke:#000000;stroke-linejoin:miter;stroke-width:0.3;"/>
   </g>
   <g id="patch_15">
    <path clip-path="url(#pa15f6f58fe)" d="M 958.655984 343.962406 
L 972.304252 343.962406 
L 972.304252 260.40422 
L 958.655984 260.40422 
z
" style="fill:#3274a1;stroke:#000000;stroke-linejoin:miter;stroke-width:0.3;"/>
   </g>
   <g id="patch_16">
    <path clip-path="url(#pa15f6f58fe)" d="M 1129.259341 343.962406 
L 1142.907609 343.962406 
L 1142.907609 321.059142 
L 1129.259341 321.059142 
z
" style="fill:#3274a1;stroke:#000000;stroke-linejoin:miter;stroke-width:0.3;"/>
   </g>
   <g id="patch_17">
    <path clip-path="url(#pa15f6f58fe)" d="M 119.287467 343.962406 
L 132.935735 343.962406 
L 132.935735 35.739369 
L 119.287467 35.739369 
z
" style="fill:#b3d495;stroke:#000000;stroke-linejoin:miter;stroke-width:0.3;"/>
   </g>
   <g id="patch_18">
    <path clip-path="url(#pa15f6f58fe)" d="M 289.890824 343.962406 
L 303.539092 343.962406 
L 303.539092 134.253255 
L 289.890824 134.253255 
z
" style="fill:#b3d495;stroke:#000000;stroke-linejoin:miter;stroke-width:0.3;"/>
   </g>
   <g id="patch_19">
    <path clip-path="url(#pa15f6f58fe)" d="M 460.494181 343.962406 
L 474.142449 343.962406 
L 474.142449 157.123565 
L 460.494181 157.123565 
z
" style="fill:#b3d495;stroke:#000000;stroke-linejoin:miter;stroke-width:0.3;"/>
   </g>
   <g id="patch_20">
    <path clip-path="url(#pa15f6f58fe)" d="M 631.097538 343.962406 
L 644.745807 343.962406 
L 644.745807 157.214411 
L 631.097538 157.214411 
z
" style="fill:#b3d495;stroke:#000000;stroke-linejoin:miter;stroke-width:0.3;"/>
   </g>
   <g id="patch_21">
    <path clip-path="url(#pa15f6f58fe)" d="M 801.700895 343.962406 
L 815.349164 343.962406 
L 815.349164 189.796336 
L 801.700895 189.796336 
z
" style="fill:#b3d495;stroke:#000000;stroke-linejoin:miter;stroke-width:0.3;"/>
   </g>
   <g id="patch_22">
    <path clip-path="url(#pa15f6f58fe)" d="M 972.304252 343.962406 
L 985.952521 343.962406 
L 985.952521 196.402843 
L 972.304252 196.402843 
z
" style="fill:#b3d495;stroke:#000000;stroke-linejoin:miter;stroke-width:0.3;"/>
   </g>
   <g id="patch_23">
    <path clip-path="url(#pa15f6f58fe)" d="M 1142.907609 343.962406 
L 1156.555878 343.962406 
L 1156.555878 334.130847 
L 1142.907609 334.130847 
z
" style="fill:#b3d495;stroke:#000000;stroke-linejoin:miter;stroke-width:0.3;"/>
   </g>
   <g id="patch_24">
    <path clip-path="url(#pa15f6f58fe)" d="M 132.935735 343.962406 
L 146.584004 343.962406 
L 146.584004 48.306414 
L 132.935735 48.306414 
z
" style="fill:#40923a;stroke:#000000;stroke-linejoin:miter;stroke-width:0.3;"/>
   </g>
   <g id="patch_25">
    <path clip-path="url(#pa15f6f58fe)" d="M 303.539092 343.962406 
L 317.187361 343.962406 
L 317.187361 132.346182 
L 303.539092 132.346182 
z
" style="fill:#40923a;stroke:#000000;stroke-linejoin:miter;stroke-width:0.3;"/>
   </g>
   <g id="patch_26">
    <path clip-path="url(#pa15f6f58fe)" d="M 474.142449 343.962406 
L 487.790718 343.962406 
L 487.790718 173.86783 
L 474.142449 173.86783 
z
" style="fill:#40923a;stroke:#000000;stroke-linejoin:miter;stroke-width:0.3;"/>
   </g>
   <g id="patch_27">
    <path clip-path="url(#pa15f6f58fe)" d="M 644.745807 343.962406 
L 658.394075 343.962406 
L 658.394075 166.282014 
L 644.745807 166.282014 
z
" style="fill:#40923a;stroke:#000000;stroke-linejoin:miter;stroke-width:0.3;"/>
   </g>
   <g id="patch_28">
    <path clip-path="url(#pa15f6f58fe)" d="M 815.349164 343.962406 
L 828.997432 343.962406 
L 828.997432 188.610835 
L 815.349164 188.610835 
z
" style="fill:#40923a;stroke:#000000;stroke-linejoin:miter;stroke-width:0.3;"/>
   </g>
   <g id="patch_29">
    <path clip-path="url(#pa15f6f58fe)" d="M 985.952521 343.962406 
L 999.600789 343.962406 
L 999.600789 167.20016 
L 985.952521 167.20016 
z
" style="fill:#40923a;stroke:#000000;stroke-linejoin:miter;stroke-width:0.3;"/>
   </g>
   <g id="patch_30">
    <path clip-path="url(#pa15f6f58fe)" d="M 1156.555878 343.962406 
L 1170.204147 343.962406 
L 1170.204147 291.532842 
L 1156.555878 291.532842 
z
" style="fill:#40923a;stroke:#000000;stroke-linejoin:miter;stroke-width:0.3;"/>
   </g>
   <g id="patch_31">
    <path clip-path="url(#pa15f6f58fe)" d="M 146.584004 343.962406 
L 160.232272 343.962406 
L 160.232272 251.420745 
L 146.584004 251.420745 
z
" style="fill:#efa6a5;stroke:#000000;stroke-linejoin:miter;stroke-width:0.3;"/>
   </g>
   <g id="patch_32">
    <path clip-path="url(#pa15f6f58fe)" d="M 317.187361 343.962406 
L 330.835629 343.962406 
L 330.835629 272.401613 
L 317.187361 272.401613 
z
" style="fill:#efa6a5;stroke:#000000;stroke-linejoin:miter;stroke-width:0.3;"/>
   </g>
   <g id="patch_33">
    <path clip-path="url(#pa15f6f58fe)" d="M 487.790718 343.962406 
L 501.438987 343.962406 
L 501.438987 265.71383 
L 487.790718 265.71383 
z
" style="fill:#efa6a5;stroke:#000000;stroke-linejoin:miter;stroke-width:0.3;"/>
   </g>
   <g id="patch_34">
    <path clip-path="url(#pa15f6f58fe)" d="M 658.394075 343.962406 
L 672.042344 343.962406 
L 672.042344 332.190513 
L 658.394075 332.190513 
z
" style="fill:#efa6a5;stroke:#000000;stroke-linejoin:miter;stroke-width:0.3;"/>
   </g>
   <g id="patch_35">
    <path clip-path="url(#pa15f6f58fe)" d="M 828.997432 343.962406 
L 842.645701 343.962406 
L 842.645701 340.976141 
L 828.997432 340.976141 
z
" style="fill:#efa6a5;stroke:#000000;stroke-linejoin:miter;stroke-width:0.3;"/>
   </g>
   <g id="patch_36">
    <path clip-path="url(#pa15f6f58fe)" d="M 999.600789 343.962406 
L 1013.249058 343.962406 
L 1013.249058 255.03957 
L 999.600789 255.03957 
z
" style="fill:#efa6a5;stroke:#000000;stroke-linejoin:miter;stroke-width:0.3;"/>
   </g>
   <g id="patch_37">
    <path clip-path="url(#pa15f6f58fe)" d="M 1170.204147 343.962406 
L 1183.852415 343.962406 
L 1183.852415 340.83893 
L 1170.204147 340.83893 
z
" style="fill:#efa6a5;stroke:#000000;stroke-linejoin:miter;stroke-width:0.3;"/>
   </g>
   <g id="patch_38">
    <path clip-path="url(#pa15f6f58fe)" d="M 160.232272 343.962406 
L 173.880541 343.962406 
L 173.880541 109.346935 
L 160.232272 109.346935 
z
" style="fill:#ca3335;stroke:#000000;stroke-linejoin:miter;stroke-width:0.3;"/>
   </g>
   <g id="patch_39">
    <path clip-path="url(#pa15f6f58fe)" d="M 330.835629 343.962406 
L 344.483898 343.962406 
L 344.483898 241.722328 
L 330.835629 241.722328 
z
" style="fill:#ca3335;stroke:#000000;stroke-linejoin:miter;stroke-width:0.3;"/>
   </g>
   <g id="patch_40">
    <path clip-path="url(#pa15f6f58fe)" d="M 501.438987 343.962406 
L 515.087255 343.962406 
L 515.087255 272.776563 
L 501.438987 272.776563 
z
" style="fill:#ca3335;stroke:#000000;stroke-linejoin:miter;stroke-width:0.3;"/>
   </g>
   <g id="patch_41">
    <path clip-path="url(#pa15f6f58fe)" d="M 672.042344 343.962406 
L 685.690612 343.962406 
L 685.690612 233.619474 
L 672.042344 233.619474 
z
" style="fill:#ca3335;stroke:#000000;stroke-linejoin:miter;stroke-width:0.3;"/>
   </g>
   <g id="patch_42">
    <path clip-path="url(#pa15f6f58fe)" d="M 842.645701 343.962406 
L 856.293969 343.962406 
L 856.293969 249.548267 
L 842.645701 249.548267 
z
" style="fill:#ca3335;stroke:#000000;stroke-linejoin:miter;stroke-width:0.3;"/>
   </g>
   <g id="patch_43">
    <path clip-path="url(#pa15f6f58fe)" d="M 1013.249058 343.962406 
L 1026.897327 343.962406 
L 1026.897327 248.958381 
L 1013.249058 248.958381 
z
" style="fill:#ca3335;stroke:#000000;stroke-linejoin:miter;stroke-width:0.3;"/>
   </g>
   <g id="patch_44">
    <path clip-path="url(#pa15f6f58fe)" d="M 1183.852415 343.962406 
L 1197.500684 343.962406 
L 1197.500684 308.717711 
L 1183.852415 308.717711 
z
" style="fill:#ca3335;stroke:#000000;stroke-linejoin:miter;stroke-width:0.3;"/>
   </g>
   <g id="patch_45">
    <path clip-path="url(#pa15f6f58fe)" d="M 173.880541 343.962406 
L 187.528809 343.962406 
L 187.528809 79.143022 
L 173.880541 79.143022 
z
" style="fill:#ebbd81;stroke:#000000;stroke-linejoin:miter;stroke-width:0.3;"/>
   </g>
   <g id="patch_46">
    <path clip-path="url(#pa15f6f58fe)" d="M 344.483898 343.962406 
L 358.132167 343.962406 
L 358.132167 230.99435 
L 344.483898 230.99435 
z
" style="fill:#ebbd81;stroke:#000000;stroke-linejoin:miter;stroke-width:0.3;"/>
   </g>
   <g id="patch_47">
    <path clip-path="url(#pa15f6f58fe)" d="M 515.087255 343.962406 
L 528.735524 343.962406 
L 528.735524 257.876503 
L 515.087255 257.876503 
z
" style="fill:#ebbd81;stroke:#000000;stroke-linejoin:miter;stroke-width:0.3;"/>
   </g>
   <g id="patch_48">
    <path clip-path="url(#pa15f6f58fe)" d="M 685.690612 343.962406 
L 699.338881 343.962406 
L 699.338881 231.827905 
L 685.690612 231.827905 
z
" style="fill:#ebbd81;stroke:#000000;stroke-linejoin:miter;stroke-width:0.3;"/>
   </g>
   <g id="patch_49">
    <path clip-path="url(#pa15f6f58fe)" d="M 856.293969 343.962406 
L 869.942238 343.962406 
L 869.942238 264.052101 
L 856.293969 264.052101 
z
" style="fill:#ebbd81;stroke:#000000;stroke-linejoin:miter;stroke-width:0.3;"/>
   </g>
   <g id="patch_50">
    <path clip-path="url(#pa15f6f58fe)" d="M 1026.897327 343.962406 
L 1040.545595 343.962406 
L 1040.545595 279.694343 
L 1026.897327 279.694343 
z
" style="fill:#ebbd81;stroke:#000000;stroke-linejoin:miter;stroke-width:0.3;"/>
   </g>
   <g id="patch_51">
    <path clip-path="url(#pa15f6f58fe)" d="M 1197.500684 343.962406 
L 1211.148952 343.962406 
L 1211.148952 240.153395 
L 1197.500684 240.153395 
z
" style="fill:#ebbd81;stroke:#000000;stroke-linejoin:miter;stroke-width:0.3;"/>
   </g>
   <g id="patch_52">
    <path clip-path="url(#pa15f6f58fe)" d="M 187.528809 343.962406 
L 201.177078 343.962406 
L 201.177078 120.029692 
L 187.528809 120.029692 
z
" style="fill:#df7f20;stroke:#000000;stroke-linejoin:miter;stroke-width:0.3;"/>
   </g>
   <g id="patch_53">
    <path clip-path="url(#pa15f6f58fe)" d="M 358.132167 343.962406 
L 371.780435 343.962406 
L 371.780435 193.76761 
L 358.132167 193.76761 
z
" style="fill:#df7f20;stroke:#000000;stroke-linejoin:miter;stroke-width:0.3;"/>
   </g>
   <g id="patch_54">
    <path clip-path="url(#pa15f6f58fe)" d="M 528.735524 343.962406 
L 542.383792 343.962406 
L 542.383792 207.585354 
L 528.735524 207.585354 
z
" style="fill:#df7f20;stroke:#000000;stroke-linejoin:miter;stroke-width:0.3;"/>
   </g>
   <g id="patch_55">
    <path clip-path="url(#pa15f6f58fe)" d="M 699.338881 343.962406 
L 712.987149 343.962406 
L 712.987149 264.184049 
L 699.338881 264.184049 
z
" style="fill:#df7f20;stroke:#000000;stroke-linejoin:miter;stroke-width:0.3;"/>
   </g>
   <g id="patch_56">
    <path clip-path="url(#pa15f6f58fe)" d="M 869.942238 343.962406 
L 883.590507 343.962406 
L 883.590507 277.664593 
L 869.942238 277.664593 
z
" style="fill:#df7f20;stroke:#000000;stroke-linejoin:miter;stroke-width:0.3;"/>
   </g>
   <g id="patch_57">
    <path clip-path="url(#pa15f6f58fe)" d="M 1040.545595 343.962406 
L 1054.193864 343.962406 
L 1054.193864 185.028934 
L 1040.545595 185.028934 
z
" style="fill:#df7f20;stroke:#000000;stroke-linejoin:miter;stroke-width:0.3;"/>
   </g>
   <g id="patch_58">
    <path clip-path="url(#pa15f6f58fe)" d="M 1211.148952 343.962406 
L 1224.797221 343.962406 
L 1224.797221 307.317702 
L 1211.148952 307.317702 
z
" style="fill:#df7f20;stroke:#000000;stroke-linejoin:miter;stroke-width:0.3;"/>
   </g>
   <g id="patch_59">
    <path clip-path="url(#pa15f6f58fe)" d="M 201.177078 343.962406 
L 214.825347 343.962406 
L 214.825347 148.170554 
L 201.177078 148.170554 
z
" style="fill:#c8b6d2;stroke:#000000;stroke-linejoin:miter;stroke-width:0.3;"/>
   </g>
   <g id="patch_60">
    <path clip-path="url(#pa15f6f58fe)" d="M 371.780435 343.962406 
L 385.428704 343.962406 
L 385.428704 191.205233 
L 371.780435 191.205233 
z
" style="fill:#c8b6d2;stroke:#000000;stroke-linejoin:miter;stroke-width:0.3;"/>
   </g>
   <g id="patch_61">
    <path clip-path="url(#pa15f6f58fe)" d="M 542.383792 343.962406 
L 556.032061 343.962406 
L 556.032061 295.557009 
L 542.383792 295.557009 
z
" style="fill:#c8b6d2;stroke:#000000;stroke-linejoin:miter;stroke-width:0.3;"/>
   </g>
   <g id="patch_62">
    <path clip-path="url(#pa15f6f58fe)" d="M 712.987149 343.962406 
L 726.635418 343.962406 
L 726.635418 286.323997 
L 712.987149 286.323997 
z
" style="fill:#c8b6d2;stroke:#000000;stroke-linejoin:miter;stroke-width:0.3;"/>
   </g>
   <g id="patch_63">
    <path clip-path="url(#pa15f6f58fe)" d="M 883.590507 343.962406 
L 897.238775 343.962406 
L 897.238775 296.21438 
L 883.590507 296.21438 
z
" style="fill:#c8b6d2;stroke:#000000;stroke-linejoin:miter;stroke-width:0.3;"/>
   </g>
   <g id="patch_64">
    <path clip-path="url(#pa15f6f58fe)" d="M 1054.193864 343.962406 
L 1067.842132 343.962406 
L 1067.842132 293.21271 
L 1054.193864 293.21271 
z
" style="fill:#c8b6d2;stroke:#000000;stroke-linejoin:miter;stroke-width:0.3;"/>
   </g>
   <g id="patch_65">
    <path clip-path="url(#pa15f6f58fe)" d="M 1224.797221 343.962406 
L 1238.445489 343.962406 
L 1238.445489 334.337452 
L 1224.797221 334.337452 
z
" style="fill:#c8b6d2;stroke:#000000;stroke-linejoin:miter;stroke-width:0.3;"/>
   </g>
   <g id="patch_66">
    <path clip-path="url(#pa15f6f58fe)" d="M 214.825347 343.962406 
L 228.473615 343.962406 
L 228.473615 94.651993 
L 214.825347 94.651993 
z
" style="fill:#6a498e;stroke:#000000;stroke-linejoin:miter;stroke-width:0.3;"/>
   </g>
   <g id="patch_67">
    <path clip-path="url(#pa15f6f58fe)" d="M 385.428704 343.962406 
L 399.076972 343.962406 
L 399.076972 203.831093 
L 385.428704 203.831093 
z
" style="fill:#6a498e;stroke:#000000;stroke-linejoin:miter;stroke-width:0.3;"/>
   </g>
   <g id="patch_68">
    <path clip-path="url(#pa15f6f58fe)" d="M 556.032061 343.962406 
L 569.680329 343.962406 
L 569.680329 236.655721 
L 556.032061 236.655721 
z
" style="fill:#6a498e;stroke:#000000;stroke-linejoin:miter;stroke-width:0.3;"/>
   </g>
   <g id="patch_69">
    <path clip-path="url(#pa15f6f58fe)" d="M 726.635418 343.962406 
L 740.283687 343.962406 
L 740.283687 242.991621 
L 726.635418 242.991621 
z
" style="fill:#6a498e;stroke:#000000;stroke-linejoin:miter;stroke-width:0.3;"/>
   </g>
   <g id="patch_70">
    <path clip-path="url(#pa15f6f58fe)" d="M 897.238775 343.962406 
L 910.887044 343.962406 
L 910.887044 254.678884 
L 897.238775 254.678884 
z
" style="fill:#6a498e;stroke:#000000;stroke-linejoin:miter;stroke-width:0.3;"/>
   </g>
   <g id="patch_71">
    <path clip-path="url(#pa15f6f58fe)" d="M 1067.842132 343.962406 
L 1081.490401 343.962406 
L 1081.490401 237.684497 
L 1067.842132 237.684497 
z
" style="fill:#6a498e;stroke:#000000;stroke-linejoin:miter;stroke-width:0.3;"/>
   </g>
   <g id="patch_72">
    <path clip-path="url(#pa15f6f58fe)" d="M 1238.445489 343.962406 
L 1252.093758 343.962406 
L 1252.093758 317.092939 
L 1238.445489 317.092939 
z
" style="fill:#6a498e;stroke:#000000;stroke-linejoin:miter;stroke-width:0.3;"/>
   </g>
   <g id="line2d_17">
    <path clip-path="url(#pa15f6f58fe)" d="M 0 0 
" style="fill:none;stroke:#424242;stroke-linecap:round;stroke-width:3.15;"/>
   </g>
   <g id="line2d_18">
    <path clip-path="url(#pa15f6f58fe)" d="M 0 0 
" style="fill:none;stroke:#424242;stroke-linecap:round;stroke-width:3.15;"/>
   </g>
   <g id="line2d_19">
    <path clip-path="url(#pa15f6f58fe)" d="M 0 0 
" style="fill:none;stroke:#424242;stroke-linecap:round;stroke-width:3.15;"/>
   </g>
   <g id="line2d_20">
    <path clip-path="url(#pa15f6f58fe)" d="M 0 0 
" style="fill:none;stroke:#424242;stroke-linecap:round;stroke-width:3.15;"/>
   </g>
   <g id="line2d_21">
    <path clip-path="url(#pa15f6f58fe)" d="M 0 0 
" style="fill:none;stroke:#424242;stroke-linecap:round;stroke-width:3.15;"/>
   </g>
   <g id="line2d_22">
    <path clip-path="url(#pa15f6f58fe)" d="M 0 0 
" style="fill:none;stroke:#424242;stroke-linecap:round;stroke-width:3.15;"/>
   </g>
   <g id="line2d_23">
    <path clip-path="url(#pa15f6f58fe)" d="M 0 0 
" style="fill:none;stroke:#424242;stroke-linecap:round;stroke-width:3.15;"/>
   </g>
   <g id="line2d_24">
    <path clip-path="url(#pa15f6f58fe)" d="M 0 0 
" style="fill:none;stroke:#424242;stroke-linecap:round;stroke-width:3.15;"/>
   </g>
   <g id="line2d_25">
    <path clip-path="url(#pa15f6f58fe)" d="M 0 0 
" style="fill:none;stroke:#424242;stroke-linecap:round;stroke-width:3.15;"/>
   </g>
   <g id="line2d_26">
    <path clip-path="url(#pa15f6f58fe)" d="M 0 0 
" style="fill:none;stroke:#424242;stroke-linecap:round;stroke-width:3.15;"/>
   </g>
   <g id="line2d_27">
    <path clip-path="url(#pa15f6f58fe)" d="M 0 0 
" style="fill:none;stroke:#424242;stroke-linecap:round;stroke-width:3.15;"/>
   </g>
   <g id="line2d_28">
    <path clip-path="url(#pa15f6f58fe)" d="M 0 0 
" style="fill:none;stroke:#424242;stroke-linecap:round;stroke-width:3.15;"/>
   </g>
   <g id="line2d_29">
    <path clip-path="url(#pa15f6f58fe)" d="M 0 0 
" style="fill:none;stroke:#424242;stroke-linecap:round;stroke-width:3.15;"/>
   </g>
   <g id="line2d_30">
    <path clip-path="url(#pa15f6f58fe)" d="M 0 0 
" style="fill:none;stroke:#424242;stroke-linecap:round;stroke-width:3.15;"/>
   </g>
   <g id="line2d_31">
    <path clip-path="url(#pa15f6f58fe)" d="M 0 0 
" style="fill:none;stroke:#424242;stroke-linecap:round;stroke-width:3.15;"/>
   </g>
   <g id="line2d_32">
    <path clip-path="url(#pa15f6f58fe)" d="M 0 0 
" style="fill:none;stroke:#424242;stroke-linecap:round;stroke-width:3.15;"/>
   </g>
   <g id="line2d_33">
    <path clip-path="url(#pa15f6f58fe)" d="M 0 0 
" style="fill:none;stroke:#424242;stroke-linecap:round;stroke-width:3.15;"/>
   </g>
   <g id="line2d_34">
    <path clip-path="url(#pa15f6f58fe)" d="M 0 0 
" style="fill:none;stroke:#424242;stroke-linecap:round;stroke-width:3.15;"/>
   </g>
   <g id="line2d_35">
    <path clip-path="url(#pa15f6f58fe)" d="M 0 0 
" style="fill:none;stroke:#424242;stroke-linecap:round;stroke-width:3.15;"/>
   </g>
   <g id="line2d_36">
    <path clip-path="url(#pa15f6f58fe)" d="M 0 0 
" style="fill:none;stroke:#424242;stroke-linecap:round;stroke-width:3.15;"/>
   </g>
   <g id="line2d_37">
    <path clip-path="url(#pa15f6f58fe)" d="M 0 0 
" style="fill:none;stroke:#424242;stroke-linecap:round;stroke-width:3.15;"/>
   </g>
   <g id="line2d_38">
    <path clip-path="url(#pa15f6f58fe)" d="M 0 0 
" style="fill:none;stroke:#424242;stroke-linecap:round;stroke-width:3.15;"/>
   </g>
   <g id="line2d_39">
    <path clip-path="url(#pa15f6f58fe)" d="M 0 0 
" style="fill:none;stroke:#424242;stroke-linecap:round;stroke-width:3.15;"/>
   </g>
   <g id="line2d_40">
    <path clip-path="url(#pa15f6f58fe)" d="M 0 0 
" style="fill:none;stroke:#424242;stroke-linecap:round;stroke-width:3.15;"/>
   </g>
   <g id="line2d_41">
    <path clip-path="url(#pa15f6f58fe)" d="M 0 0 
" style="fill:none;stroke:#424242;stroke-linecap:round;stroke-width:3.15;"/>
   </g>
   <g id="line2d_42">
    <path clip-path="url(#pa15f6f58fe)" d="M 0 0 
" style="fill:none;stroke:#424242;stroke-linecap:round;stroke-width:3.15;"/>
   </g>
   <g id="line2d_43">
    <path clip-path="url(#pa15f6f58fe)" d="M 0 0 
" style="fill:none;stroke:#424242;stroke-linecap:round;stroke-width:3.15;"/>
   </g>
   <g id="line2d_44">
    <path clip-path="url(#pa15f6f58fe)" d="M 0 0 
" style="fill:none;stroke:#424242;stroke-linecap:round;stroke-width:3.15;"/>
   </g>
   <g id="line2d_45">
    <path clip-path="url(#pa15f6f58fe)" d="M 0 0 
" style="fill:none;stroke:#424242;stroke-linecap:round;stroke-width:3.15;"/>
   </g>
   <g id="line2d_46">
    <path clip-path="url(#pa15f6f58fe)" d="M 0 0 
" style="fill:none;stroke:#424242;stroke-linecap:round;stroke-width:3.15;"/>
   </g>
   <g id="line2d_47">
    <path clip-path="url(#pa15f6f58fe)" d="M 0 0 
" style="fill:none;stroke:#424242;stroke-linecap:round;stroke-width:3.15;"/>
   </g>
   <g id="line2d_48">
    <path clip-path="url(#pa15f6f58fe)" d="M 0 0 
" style="fill:none;stroke:#424242;stroke-linecap:round;stroke-width:3.15;"/>
   </g>
   <g id="line2d_49">
    <path clip-path="url(#pa15f6f58fe)" d="M 0 0 
" style="fill:none;stroke:#424242;stroke-linecap:round;stroke-width:3.15;"/>
   </g>
   <g id="line2d_50">
    <path clip-path="url(#pa15f6f58fe)" d="M 0 0 
" style="fill:none;stroke:#424242;stroke-linecap:round;stroke-width:3.15;"/>
   </g>
   <g id="line2d_51">
    <path clip-path="url(#pa15f6f58fe)" d="M 0 0 
" style="fill:none;stroke:#424242;stroke-linecap:round;stroke-width:3.15;"/>
   </g>
   <g id="line2d_52">
    <path clip-path="url(#pa15f6f58fe)" d="M 0 0 
" style="fill:none;stroke:#424242;stroke-linecap:round;stroke-width:3.15;"/>
   </g>
   <g id="line2d_53">
    <path clip-path="url(#pa15f6f58fe)" d="M 0 0 
" style="fill:none;stroke:#424242;stroke-linecap:round;stroke-width:3.15;"/>
   </g>
   <g id="line2d_54">
    <path clip-path="url(#pa15f6f58fe)" d="M 0 0 
" style="fill:none;stroke:#424242;stroke-linecap:round;stroke-width:3.15;"/>
   </g>
   <g id="line2d_55">
    <path clip-path="url(#pa15f6f58fe)" d="M 0 0 
" style="fill:none;stroke:#424242;stroke-linecap:round;stroke-width:3.15;"/>
   </g>
   <g id="line2d_56">
    <path clip-path="url(#pa15f6f58fe)" d="M 0 0 
" style="fill:none;stroke:#424242;stroke-linecap:round;stroke-width:3.15;"/>
   </g>
   <g id="line2d_57">
    <path clip-path="url(#pa15f6f58fe)" d="M 0 0 
" style="fill:none;stroke:#424242;stroke-linecap:round;stroke-width:3.15;"/>
   </g>
   <g id="line2d_58">
    <path clip-path="url(#pa15f6f58fe)" d="M 0 0 
" style="fill:none;stroke:#424242;stroke-linecap:round;stroke-width:3.15;"/>
   </g>
   <g id="line2d_59">
    <path clip-path="url(#pa15f6f58fe)" d="M 0 0 
" style="fill:none;stroke:#424242;stroke-linecap:round;stroke-width:3.15;"/>
   </g>
   <g id="line2d_60">
    <path clip-path="url(#pa15f6f58fe)" d="M 0 0 
" style="fill:none;stroke:#424242;stroke-linecap:round;stroke-width:3.15;"/>
   </g>
   <g id="line2d_61">
    <path clip-path="url(#pa15f6f58fe)" d="M 0 0 
" style="fill:none;stroke:#424242;stroke-linecap:round;stroke-width:3.15;"/>
   </g>
   <g id="line2d_62">
    <path clip-path="url(#pa15f6f58fe)" d="M 0 0 
" style="fill:none;stroke:#424242;stroke-linecap:round;stroke-width:3.15;"/>
   </g>
   <g id="line2d_63">
    <path clip-path="url(#pa15f6f58fe)" d="M 0 0 
" style="fill:none;stroke:#424242;stroke-linecap:round;stroke-width:3.15;"/>
   </g>
   <g id="line2d_64">
    <path clip-path="url(#pa15f6f58fe)" d="M 0 0 
" style="fill:none;stroke:#424242;stroke-linecap:round;stroke-width:3.15;"/>
   </g>
   <g id="line2d_65">
    <path clip-path="url(#pa15f6f58fe)" d="M 0 0 
" style="fill:none;stroke:#424242;stroke-linecap:round;stroke-width:3.15;"/>
   </g>
   <g id="line2d_66">
    <path clip-path="url(#pa15f6f58fe)" d="M 0 0 
" style="fill:none;stroke:#424242;stroke-linecap:round;stroke-width:3.15;"/>
   </g>
   <g id="line2d_67">
    <path clip-path="url(#pa15f6f58fe)" d="M 0 0 
" style="fill:none;stroke:#424242;stroke-linecap:round;stroke-width:3.15;"/>
   </g>
   <g id="line2d_68">
    <path clip-path="url(#pa15f6f58fe)" d="M 0 0 
" style="fill:none;stroke:#424242;stroke-linecap:round;stroke-width:3.15;"/>
   </g>
   <g id="line2d_69">
    <path clip-path="url(#pa15f6f58fe)" d="M 0 0 
" style="fill:none;stroke:#424242;stroke-linecap:round;stroke-width:3.15;"/>
   </g>
   <g id="line2d_70">
    <path clip-path="url(#pa15f6f58fe)" d="M 0 0 
" style="fill:none;stroke:#424242;stroke-linecap:round;stroke-width:3.15;"/>
   </g>
   <g id="line2d_71">
    <path clip-path="url(#pa15f6f58fe)" d="M 0 0 
" style="fill:none;stroke:#424242;stroke-linecap:round;stroke-width:3.15;"/>
   </g>
   <g id="line2d_72">
    <path clip-path="url(#pa15f6f58fe)" d="M 0 0 
" style="fill:none;stroke:#424242;stroke-linecap:round;stroke-width:3.15;"/>
   </g>
   <g id="line2d_73">
    <path clip-path="url(#pa15f6f58fe)" d="M 0 0 
" style="fill:none;stroke:#424242;stroke-linecap:round;stroke-width:3.15;"/>
   </g>
   <g id="line2d_74">
    <path clip-path="url(#pa15f6f58fe)" d="M 0 0 
" style="fill:none;stroke:#424242;stroke-linecap:round;stroke-width:3.15;"/>
   </g>
   <g id="line2d_75">
    <path clip-path="url(#pa15f6f58fe)" d="M 0 0 
" style="fill:none;stroke:#424242;stroke-linecap:round;stroke-width:3.15;"/>
   </g>
   <g id="line2d_76">
    <path clip-path="url(#pa15f6f58fe)" d="M 0 0 
" style="fill:none;stroke:#424242;stroke-linecap:round;stroke-width:3.15;"/>
   </g>
   <g id="line2d_77">
    <path clip-path="url(#pa15f6f58fe)" d="M 0 0 
" style="fill:none;stroke:#424242;stroke-linecap:round;stroke-width:3.15;"/>
   </g>
   <g id="line2d_78">
    <path clip-path="url(#pa15f6f58fe)" d="M 0 0 
" style="fill:none;stroke:#424242;stroke-linecap:round;stroke-width:3.15;"/>
   </g>
   <g id="line2d_79">
    <path clip-path="url(#pa15f6f58fe)" d="M 0 0 
" style="fill:none;stroke:#424242;stroke-linecap:round;stroke-width:3.15;"/>
   </g>
   <g id="line2d_80">
    <path clip-path="url(#pa15f6f58fe)" d="M 0 0 
" style="fill:none;stroke:#424242;stroke-linecap:round;stroke-width:3.15;"/>
   </g>
   <g id="line2d_81">
    <path clip-path="url(#pa15f6f58fe)" d="M 0 0 
" style="fill:none;stroke:#424242;stroke-linecap:round;stroke-width:3.15;"/>
   </g>
   <g id="line2d_82">
    <path clip-path="url(#pa15f6f58fe)" d="M 0 0 
" style="fill:none;stroke:#424242;stroke-linecap:round;stroke-width:3.15;"/>
   </g>
   <g id="line2d_83">
    <path clip-path="url(#pa15f6f58fe)" d="M 0 0 
" style="fill:none;stroke:#424242;stroke-linecap:round;stroke-width:3.15;"/>
   </g>
   <g id="line2d_84">
    <path clip-path="url(#pa15f6f58fe)" d="M 0 0 
" style="fill:none;stroke:#424242;stroke-linecap:round;stroke-width:3.15;"/>
   </g>
   <g id="line2d_85">
    <path clip-path="url(#pa15f6f58fe)" d="M 0 0 
" style="fill:none;stroke:#424242;stroke-linecap:round;stroke-width:3.15;"/>
   </g>
   <g id="line2d_86">
    <path clip-path="url(#pa15f6f58fe)" d="M 0 0 
" style="fill:none;stroke:#424242;stroke-linecap:round;stroke-width:3.15;"/>
   </g>
   <g id="patch_73">
    <path d="M 64.930594 343.962406 
L 64.930594 15.426406 
" style="fill:none;stroke:#262626;stroke-linecap:square;stroke-linejoin:miter;stroke-width:1.25;"/>
   </g>
   <g id="patch_74">
    <path d="M 74.930594 353.962406 
L 1269.154094 353.962406 
" style="fill:none;stroke:#262626;stroke-linecap:square;stroke-linejoin:miter;stroke-width:1.25;"/>
   </g>
   <g id="legend_1">
    <g id="patch_75">
     <path d="M 641.952375 43.64375 
L 675.952375 43.64375 
L 675.952375 31.74375 
L 641.952375 31.74375 
z
" style="fill:#aeccdb;stroke:#000000;stroke-linejoin:miter;stroke-width:0.3;"/>
    </g>
    <g id="text_18">
     <!-- Motors -->
     <defs>
      <path d="M 5.515625 0 
L 5.515625 5.171875 
L 14.796875 5.171875 
L 14.796875 67.671875 
L 4.984375 67.671875 
L 4.984375 72.90625 
L 26.21875 72.90625 
L 51.8125 21 
L 77.390625 72.90625 
L 97.3125 72.90625 
L 97.3125 67.671875 
L 87.59375 67.671875 
L 87.59375 5.171875 
L 96.921875 5.171875 
L 96.921875 0 
L 68.40625 0 
L 68.40625 5.171875 
L 77.6875 5.171875 
L 77.6875 61.53125 
L 52.6875 10.6875 
L 45.796875 10.6875 
L 20.796875 61.53125 
L 20.796875 5.171875 
L 30.078125 5.171875 
L 30.078125 0 
z
" id="BitstreamVeraSerif-Roman-4d"/>
     </defs>
     <g style="fill:#262626;" transform="translate(689.552375 43.64375)scale(0.17 -0.17)">
      <use xlink:href="#BitstreamVeraSerif-Roman-4d"/>
      <use x="102.392578125" xlink:href="#BitstreamVeraSerif-Roman-6f"/>
      <use x="162.59765625" xlink:href="#BitstreamVeraSerif-Roman-74"/>
      <use x="202.783203125" xlink:href="#BitstreamVeraSerif-Roman-6f"/>
      <use x="262.98828125" xlink:href="#BitstreamVeraSerif-Roman-72"/>
      <use x="310.791015625" xlink:href="#BitstreamVeraSerif-Roman-73"/>
     </g>
    </g>
    <g id="patch_76">
     <path d="M 641.952375 68.596563 
L 675.952375 68.596563 
L 675.952375 56.696563 
L 641.952375 56.696563 
z
" style="fill:#3274a1;stroke:#000000;stroke-linejoin:miter;stroke-width:0.3;"/>
    </g>
    <g id="text_19">
     <!-- E-Commerce -->
     <defs>
      <path d="M 4.390625 30.609375 
L 29.390625 30.609375 
L 29.390625 23 
L 4.390625 23 
z
" id="BitstreamVeraSerif-Roman-2d"/>
      <path d="M 70.515625 19.28125 
Q 67.28125 9.078125 59.6875 3.828125 
Q 52.09375 -1.421875 40.484375 -1.421875 
Q 33.34375 -1.421875 27.234375 1.015625 
Q 21.140625 3.46875 16.40625 8.203125 
Q 10.9375 13.671875 8.265625 20.625 
Q 5.609375 27.59375 5.609375 36.375 
Q 5.609375 53.375 15.421875 63.796875 
Q 25.25 74.21875 41.3125 74.21875 
Q 47.265625 74.21875 54 72.65625 
Q 60.75 71.09375 68.5 67.921875 
L 68.5 51.125 
L 62.984375 51.125 
Q 61.1875 60.296875 55.734375 64.640625 
Q 50.296875 69 40.484375 69 
Q 28.8125 69 22.796875 60.71875 
Q 16.796875 52.4375 16.796875 36.375 
Q 16.796875 20.359375 22.796875 12.078125 
Q 28.8125 3.8125 40.484375 3.8125 
Q 48.640625 3.8125 53.90625 7.6875 
Q 59.1875 11.578125 61.53125 19.28125 
z
" id="BitstreamVeraSerif-Roman-43"/>
      <path d="M 5.515625 0 
L 5.515625 5.171875 
L 14.796875 5.171875 
L 14.796875 67.671875 
L 5.515625 67.671875 
L 5.515625 72.90625 
L 64.203125 72.90625 
L 64.203125 56.6875 
L 58.203125 56.6875 
L 58.203125 66.890625 
L 24.703125 66.890625 
L 24.703125 42.484375 
L 48.578125 42.484375 
L 48.578125 51.609375 
L 54.59375 51.609375 
L 54.59375 27.390625 
L 48.578125 27.390625 
L 48.578125 36.53125 
L 24.703125 36.53125 
L 24.703125 6 
L 58.984375 6 
L 58.984375 16.21875 
L 64.984375 16.21875 
L 64.984375 0 
z
" id="BitstreamVeraSerif-Roman-45"/>
     </defs>
     <g style="fill:#262626;" transform="translate(689.552375 68.5965625)scale(0.17 -0.17)">
      <use xlink:href="#BitstreamVeraSerif-Roman-45"/>
      <use x="73.013671875" xlink:href="#BitstreamVeraSerif-Roman-2d"/>
      <use x="106.802734375" xlink:href="#BitstreamVeraSerif-Roman-43"/>
      <use x="183.31640625" xlink:href="#BitstreamVeraSerif-Roman-6f"/>
      <use x="243.521484375" xlink:href="#BitstreamVeraSerif-Roman-6d"/>
      <use x="338.345703125" xlink:href="#BitstreamVeraSerif-Roman-6d"/>
      <use x="433.169921875" xlink:href="#BitstreamVeraSerif-Roman-65"/>
      <use x="492.349609375" xlink:href="#BitstreamVeraSerif-Roman-72"/>
      <use x="540.15234375" xlink:href="#BitstreamVeraSerif-Roman-63"/>
      <use x="596.158203125" xlink:href="#BitstreamVeraSerif-Roman-65"/>
     </g>
    </g>
    <g id="patch_77">
     <path d="M 641.952375 93.549375 
L 675.952375 93.549375 
L 675.952375 81.649375 
L 641.952375 81.649375 
z
" style="fill:#b3d495;stroke:#000000;stroke-linejoin:miter;stroke-width:0.3;"/>
    </g>
    <g id="text_20">
     <!-- Forums -->
     <defs>
      <path d="M 5.515625 0 
L 5.515625 5.171875 
L 14.796875 5.171875 
L 14.796875 67.671875 
L 5.515625 67.671875 
L 5.515625 72.90625 
L 65.1875 72.90625 
L 65.1875 56.6875 
L 59.1875 56.6875 
L 59.1875 66.890625 
L 24.703125 66.890625 
L 24.703125 42.484375 
L 49.609375 42.484375 
L 49.609375 51.609375 
L 55.609375 51.609375 
L 55.609375 27.390625 
L 49.609375 27.390625 
L 49.609375 36.53125 
L 24.703125 36.53125 
L 24.703125 5.171875 
L 36.375 5.171875 
L 36.375 0 
z
" id="BitstreamVeraSerif-Roman-46"/>
     </defs>
     <g style="fill:#262626;" transform="translate(689.552375 93.549375)scale(0.17 -0.17)">
      <use xlink:href="#BitstreamVeraSerif-Roman-46"/>
      <use x="69.306640625" xlink:href="#BitstreamVeraSerif-Roman-6f"/>
      <use x="129.51171875" xlink:href="#BitstreamVeraSerif-Roman-72"/>
      <use x="177.314453125" xlink:href="#BitstreamVeraSerif-Roman-75"/>
      <use x="241.71875" xlink:href="#BitstreamVeraSerif-Roman-6d"/>
      <use x="336.54296875" xlink:href="#BitstreamVeraSerif-Roman-73"/>
     </g>
    </g>
    <g id="patch_78">
     <path d="M 641.952375 118.502187 
L 675.952375 118.502187 
L 675.952375 106.602187 
L 641.952375 106.602187 
z
" style="fill:#40923a;stroke:#000000;stroke-linejoin:miter;stroke-width:0.3;"/>
    </g>
    <g id="text_21">
     <!-- Games -->
     <g style="fill:#262626;" transform="translate(689.552375 118.5021875)scale(0.17 -0.17)">
      <use xlink:href="#BitstreamVeraSerif-Roman-47"/>
      <use x="79.8828125" xlink:href="#BitstreamVeraSerif-Roman-61"/>
      <use x="139.501953125" xlink:href="#BitstreamVeraSerif-Roman-6d"/>
      <use x="234.326171875" xlink:href="#BitstreamVeraSerif-Roman-65"/>
      <use x="293.505859375" xlink:href="#BitstreamVeraSerif-Roman-73"/>
     </g>
    </g>
    <g id="patch_79">
     <path d="M 834.963469 43.64375 
L 868.963469 43.64375 
L 868.963469 31.74375 
L 834.963469 31.74375 
z
" style="fill:#efa6a5;stroke:#000000;stroke-linejoin:miter;stroke-width:0.3;"/>
    </g>
    <g id="text_22">
     <!-- Hobbies -->
     <defs>
      <path d="M 11.53125 5.171875 
L 11.53125 70.796875 
L 2.875 70.796875 
L 2.875 75.984375 
L 20.515625 75.984375 
L 20.515625 43.796875 
Q 23.140625 48.6875 27.21875 51 
Q 31.296875 53.328125 37.3125 53.328125 
Q 46.875 53.328125 52.921875 45.75 
Q 58.984375 38.1875 58.984375 25.984375 
Q 58.984375 13.765625 52.921875 6.171875 
Q 46.875 -1.421875 37.3125 -1.421875 
Q 31.296875 -1.421875 27.21875 0.890625 
Q 23.140625 3.21875 20.515625 8.109375 
L 20.515625 0 
L 2.875 0 
L 2.875 5.171875 
z
M 20.515625 23.390625 
Q 20.515625 14.015625 24.09375 9.109375 
Q 27.6875 4.203125 34.515625 4.203125 
Q 41.40625 4.203125 44.9375 9.71875 
Q 48.484375 15.234375 48.484375 25.984375 
Q 48.484375 36.765625 44.9375 42.234375 
Q 41.40625 47.703125 34.515625 47.703125 
Q 27.6875 47.703125 24.09375 42.765625 
Q 20.515625 37.84375 20.515625 28.515625 
z
" id="BitstreamVeraSerif-Roman-62"/>
      <path d="M 5.515625 0 
L 5.515625 5.171875 
L 14.796875 5.171875 
L 14.796875 67.671875 
L 5.515625 67.671875 
L 5.515625 72.90625 
L 33.984375 72.90625 
L 33.984375 67.671875 
L 24.703125 67.671875 
L 24.703125 42.484375 
L 62.5 42.484375 
L 62.5 67.671875 
L 53.21875 67.671875 
L 53.21875 72.90625 
L 81.6875 72.90625 
L 81.6875 67.671875 
L 72.40625 67.671875 
L 72.40625 5.171875 
L 81.6875 5.171875 
L 81.6875 0 
L 53.21875 0 
L 53.21875 5.171875 
L 62.5 5.171875 
L 62.5 36.53125 
L 24.703125 36.53125 
L 24.703125 5.171875 
L 33.984375 5.171875 
L 33.984375 0 
z
" id="BitstreamVeraSerif-Roman-48"/>
     </defs>
     <g style="fill:#262626;" transform="translate(882.56346875 43.64375)scale(0.17 -0.17)">
      <use xlink:href="#BitstreamVeraSerif-Roman-48"/>
      <use x="87.20703125" xlink:href="#BitstreamVeraSerif-Roman-6f"/>
      <use x="147.412109375" xlink:href="#BitstreamVeraSerif-Roman-62"/>
      <use x="211.42578125" xlink:href="#BitstreamVeraSerif-Roman-62"/>
      <use x="275.439453125" xlink:href="#BitstreamVeraSerif-Roman-69"/>
      <use x="307.421875" xlink:href="#BitstreamVeraSerif-Roman-65"/>
      <use x="366.6015625" xlink:href="#BitstreamVeraSerif-Roman-73"/>
     </g>
    </g>
    <g id="patch_80">
     <path d="M 834.963469 68.596563 
L 868.963469 68.596563 
L 868.963469 56.696563 
L 834.963469 56.696563 
z
" style="fill:#ca3335;stroke:#000000;stroke-linejoin:miter;stroke-width:0.3;"/>
    </g>
    <g id="text_23">
     <!-- News -->
     <defs>
      <path d="M 48 51.90625 
L 61.28125 11.375 
L 73 46.6875 
L 65.484375 46.6875 
L 65.484375 51.90625 
L 84.28125 51.90625 
L 84.28125 46.6875 
L 78.515625 46.6875 
L 63.09375 0 
L 55.609375 0 
L 42.828125 38.8125 
L 29.984375 0 
L 22.796875 0 
L 7.421875 46.6875 
L 1.609375 46.6875 
L 1.609375 51.90625 
L 25.09375 51.90625 
L 25.09375 46.6875 
L 16.703125 46.6875 
L 28.328125 11.375 
L 41.703125 51.90625 
z
" id="BitstreamVeraSerif-Roman-77"/>
      <path d="M 4.890625 0 
L 4.890625 5.171875 
L 14.703125 5.171875 
L 14.703125 67.671875 
L 4.890625 67.671875 
L 4.890625 72.90625 
L 23.578125 72.90625 
L 67.28125 15.375 
L 67.28125 67.671875 
L 57.515625 67.671875 
L 57.515625 72.90625 
L 83.109375 72.90625 
L 83.109375 67.671875 
L 73.296875 67.671875 
L 73.296875 -1.421875 
L 67.390625 -1.421875 
L 20.703125 60.015625 
L 20.703125 5.171875 
L 30.515625 5.171875 
L 30.515625 0 
z
" id="BitstreamVeraSerif-Roman-4e"/>
     </defs>
     <g style="fill:#262626;" transform="translate(882.56346875 68.5965625)scale(0.17 -0.17)">
      <use xlink:href="#BitstreamVeraSerif-Roman-4e"/>
      <use x="87.5" xlink:href="#BitstreamVeraSerif-Roman-65"/>
      <use x="146.6796875" xlink:href="#BitstreamVeraSerif-Roman-77"/>
      <use x="232.275390625" xlink:href="#BitstreamVeraSerif-Roman-73"/>
     </g>
    </g>
    <g id="patch_81">
     <path d="M 834.963469 93.549375 
L 868.963469 93.549375 
L 868.963469 81.649375 
L 834.963469 81.649375 
z
" style="fill:#ebbd81;stroke:#000000;stroke-linejoin:miter;stroke-width:0.3;"/>
    </g>
    <g id="text_24">
     <!-- Search Engines -->
     <defs>
      <path d="M 9.28125 3.515625 
L 9.28125 20.125 
L 14.890625 20.0625 
Q 15.140625 11.765625 19.703125 7.78125 
Q 24.265625 3.8125 33.59375 3.8125 
Q 42.28125 3.8125 46.84375 7.25 
Q 51.421875 10.6875 51.421875 17.28125 
Q 51.421875 22.5625 48.65625 25.390625 
Q 45.90625 28.21875 37.015625 30.90625 
L 27.390625 33.796875 
Q 16.9375 36.96875 12.671875 41.703125 
Q 8.40625 46.4375 8.40625 54.6875 
Q 8.40625 63.96875 14.984375 69.09375 
Q 21.578125 74.21875 33.5 74.21875 
Q 38.578125 74.21875 44.625 73.109375 
Q 50.6875 72.015625 57.515625 69.921875 
L 57.515625 54.390625 
L 52 54.390625 
Q 51.171875 62.109375 46.84375 65.546875 
Q 42.53125 69 33.6875 69 
Q 25.984375 69 21.953125 65.84375 
Q 17.921875 62.703125 17.921875 56.6875 
Q 17.921875 51.46875 20.9375 48.484375 
Q 23.96875 45.515625 33.796875 42.578125 
L 42.828125 39.890625 
Q 52.734375 36.921875 56.953125 32.296875 
Q 61.1875 27.6875 61.1875 19.921875 
Q 61.1875 9.328125 54.390625 3.953125 
Q 47.609375 -1.421875 34.1875 -1.421875 
Q 28.171875 -1.421875 21.9375 -0.1875 
Q 15.71875 1.03125 9.28125 3.515625 
" id="BitstreamVeraSerif-Roman-53"/>
     </defs>
     <g style="fill:#262626;" transform="translate(882.56346875 93.549375)scale(0.17 -0.17)">
      <use xlink:href="#BitstreamVeraSerif-Roman-53"/>
      <use x="68.505859375" xlink:href="#BitstreamVeraSerif-Roman-65"/>
      <use x="127.685546875" xlink:href="#BitstreamVeraSerif-Roman-61"/>
      <use x="187.3046875" xlink:href="#BitstreamVeraSerif-Roman-72"/>
      <use x="235.107421875" xlink:href="#BitstreamVeraSerif-Roman-63"/>
      <use x="291.11328125" xlink:href="#BitstreamVeraSerif-Roman-68"/>
      <use x="355.517578125" xlink:href="#BitstreamVeraSerif-Roman-20"/>
      <use x="387.3046875" xlink:href="#BitstreamVeraSerif-Roman-45"/>
      <use x="460.302734375" xlink:href="#BitstreamVeraSerif-Roman-6e"/>
      <use x="524.70703125" xlink:href="#BitstreamVeraSerif-Roman-67"/>
      <use x="588.720703125" xlink:href="#BitstreamVeraSerif-Roman-69"/>
      <use x="620.703125" xlink:href="#BitstreamVeraSerif-Roman-6e"/>
      <use x="685.107421875" xlink:href="#BitstreamVeraSerif-Roman-65"/>
      <use x="744.287109375" xlink:href="#BitstreamVeraSerif-Roman-73"/>
     </g>
    </g>
    <g id="patch_82">
     <path d="M 1051.817062 43.64375 
L 1085.817062 43.64375 
L 1085.817062 31.74375 
L 1051.817062 31.74375 
z
" style="fill:#df7f20;stroke:#000000;stroke-linejoin:miter;stroke-width:0.3;"/>
    </g>
    <g id="text_25">
     <!-- Sport -->
     <defs>
      <path d="M 20.515625 28.515625 
L 20.515625 23.390625 
Q 20.515625 14.015625 24.09375 9.109375 
Q 27.6875 4.203125 34.515625 4.203125 
Q 41.40625 4.203125 44.9375 9.71875 
Q 48.484375 15.234375 48.484375 25.984375 
Q 48.484375 36.765625 44.9375 42.234375 
Q 41.40625 47.703125 34.515625 47.703125 
Q 27.6875 47.703125 24.09375 42.765625 
Q 20.515625 37.84375 20.515625 28.515625 
M 11.53125 46.6875 
L 2.875 46.6875 
L 2.875 51.90625 
L 20.515625 51.90625 
L 20.515625 43.796875 
Q 23.140625 48.6875 27.21875 51 
Q 31.296875 53.328125 37.3125 53.328125 
Q 46.875 53.328125 52.921875 45.75 
Q 58.984375 38.1875 58.984375 25.984375 
Q 58.984375 13.765625 52.921875 6.171875 
Q 46.875 -1.421875 37.3125 -1.421875 
Q 31.296875 -1.421875 27.21875 0.890625 
Q 23.140625 3.21875 20.515625 8.109375 
L 20.515625 -15.578125 
L 29 -15.578125 
L 29 -20.796875 
L 2.875 -20.796875 
L 2.875 -15.578125 
L 11.53125 -15.578125 
z
" id="BitstreamVeraSerif-Roman-70"/>
     </defs>
     <g style="fill:#262626;" transform="translate(1099.4170625 43.64375)scale(0.17 -0.17)">
      <use xlink:href="#BitstreamVeraSerif-Roman-53"/>
      <use x="68.505859375" xlink:href="#BitstreamVeraSerif-Roman-70"/>
      <use x="132.51953125" xlink:href="#BitstreamVeraSerif-Roman-6f"/>
      <use x="192.724609375" xlink:href="#BitstreamVeraSerif-Roman-72"/>
      <use x="240.52734375" xlink:href="#BitstreamVeraSerif-Roman-74"/>
     </g>
    </g>
    <g id="patch_83">
     <path d="M 1051.817062 68.596563 
L 1085.817062 68.596563 
L 1085.817062 56.696563 
L 1051.817062 56.696563 
z
" style="fill:#c8b6d2;stroke:#000000;stroke-linejoin:miter;stroke-width:0.3;"/>
    </g>
    <g id="text_26">
     <!-- Technology -->
     <defs>
      <path d="M 19.09375 0 
L 19.09375 5.171875 
L 28.421875 5.171875 
L 28.421875 67.09375 
L 6.984375 67.09375 
L 6.984375 55.71875 
L 0.984375 55.71875 
L 0.984375 72.90625 
L 65.71875 72.90625 
L 65.71875 55.71875 
L 59.71875 55.71875 
L 59.71875 67.09375 
L 38.28125 67.09375 
L 38.28125 5.171875 
L 47.609375 5.171875 
L 47.609375 0 
z
" id="BitstreamVeraSerif-Roman-54"/>
     </defs>
     <g style="fill:#262626;" transform="translate(1099.4170625 68.5965625)scale(0.17 -0.17)">
      <use xlink:href="#BitstreamVeraSerif-Roman-54"/>
      <use x="66.58984375" xlink:href="#BitstreamVeraSerif-Roman-65"/>
      <use x="125.76953125" xlink:href="#BitstreamVeraSerif-Roman-63"/>
      <use x="181.775390625" xlink:href="#BitstreamVeraSerif-Roman-68"/>
      <use x="246.1796875" xlink:href="#BitstreamVeraSerif-Roman-6e"/>
      <use x="310.583984375" xlink:href="#BitstreamVeraSerif-Roman-6f"/>
      <use x="370.7890625" xlink:href="#BitstreamVeraSerif-Roman-6c"/>
      <use x="402.771484375" xlink:href="#BitstreamVeraSerif-Roman-6f"/>
      <use x="462.9765625" xlink:href="#BitstreamVeraSerif-Roman-67"/>
      <use x="526.990234375" xlink:href="#BitstreamVeraSerif-Roman-79"/>
     </g>
    </g>
    <g id="patch_84">
     <path d="M 1051.817062 93.791094 
L 1085.817062 93.791094 
L 1085.817062 81.891094 
L 1051.817062 81.891094 
z
" style="fill:#6a498e;stroke:#000000;stroke-linejoin:miter;stroke-width:0.3;"/>
    </g>
    <g id="text_27">
     <!-- Weather Forecast -->
     <defs>
      <path d="M 76.21875 0 
L 68.21875 0 
L 51.515625 59.28125 
L 34.8125 0 
L 26.8125 0 
L 7.71875 67.671875 
L 0.484375 67.671875 
L 0.484375 72.90625 
L 27.09375 72.90625 
L 27.09375 67.671875 
L 18.015625 67.671875 
L 33.203125 13.8125 
L 49.8125 72.90625 
L 57.71875 72.90625 
L 74.609375 13.1875 
L 89.890625 67.671875 
L 81.5 67.671875 
L 81.5 72.90625 
L 102.484375 72.90625 
L 102.484375 67.671875 
L 95.3125 67.671875 
z
" id="BitstreamVeraSerif-Roman-57"/>
     </defs>
     <g style="fill:#262626;" transform="translate(1099.4170625 93.79109375)scale(0.17 -0.17)">
      <use xlink:href="#BitstreamVeraSerif-Roman-57"/>
      <use x="102.658203125" xlink:href="#BitstreamVeraSerif-Roman-65"/>
      <use x="161.837890625" xlink:href="#BitstreamVeraSerif-Roman-61"/>
      <use x="221.45703125" xlink:href="#BitstreamVeraSerif-Roman-74"/>
      <use x="261.642578125" xlink:href="#BitstreamVeraSerif-Roman-68"/>
      <use x="326.046875" xlink:href="#BitstreamVeraSerif-Roman-65"/>
      <use x="385.2265625" xlink:href="#BitstreamVeraSerif-Roman-72"/>
      <use x="433.029296875" xlink:href="#BitstreamVeraSerif-Roman-20"/>
      <use x="464.81640625" xlink:href="#BitstreamVeraSerif-Roman-46"/>
      <use x="534.123046875" xlink:href="#BitstreamVeraSerif-Roman-6f"/>
      <use x="594.328125" xlink:href="#BitstreamVeraSerif-Roman-72"/>
      <use x="642.130859375" xlink:href="#BitstreamVeraSerif-Roman-65"/>
      <use x="701.310546875" xlink:href="#BitstreamVeraSerif-Roman-63"/>
      <use x="757.31640625" xlink:href="#BitstreamVeraSerif-Roman-61"/>
      <use x="816.935546875" xlink:href="#BitstreamVeraSerif-Roman-73"/>
      <use x="868.25390625" xlink:href="#BitstreamVeraSerif-Roman-74"/>
     </g>
    </g>
   </g>
  </g>
 </g>
 <defs>
  <clipPath id="pa15f6f58fe">
   <rect height="328.536" width="1194.2235" x="74.93059375" y="15.42640625"/>
  </clipPath>
 </defs>
</svg>
